digraph tree {
"275546400" [label="1.0"];
"275546400" -> "-1065968638" [label="NOOP"];
"-1065968638" -> "-1599207580" [label="NOOP"];
"-1599207580" -> "875277489" [label="( ROLL P1 1 6 )"];
"-1599207580" -> "875306319" [label="( ROLL P1 2 5 )"];
"-1599207580" -> "875423561" [label="( ROLL P1 6 3 )"];
"-1599207580" -> "875364940" [label="( ROLL P1 4 4 )"];
"-1599207580" -> "875274606" [label="( ROLL P1 1 3 )"];
"-1599207580" -> "875392809" [label="( ROLL P1 5 2 )"];
"-1599207580" -> "875276528" [label="( ROLL P1 1 5 )"];
"-1599207580" -> "875334188" [label="( ROLL P1 3 3 )"];
"-1599207580" -> "875426444" [label="( ROLL P1 6 6 )"];
"-1599207580" -> "875422600" [label="( ROLL P1 6 2 )"];
"-1599207580" -> "875425483" [label="( ROLL P1 6 5 )"];
"-1599207580" -> "875393770" [label="( ROLL P1 5 3 )"];
"-1599207580" -> "875394731" [label="( ROLL P1 5 4 )"];
"-1599207580" -> "875396653" [label="( ROLL P1 5 6 )"];
"-1599207580" -> "875395692" [label="( ROLL P1 5 5 )"];
"-1599207580" -> "875337071" [label="( ROLL P1 3 6 )"];
"-1599207580" -> "875307280" [label="( ROLL P1 2 6 )"];
"-1599207580" -> "875365901" [label="( ROLL P1 4 5 )"];
"-1599207580" -> "875363979" [label="( ROLL P1 4 3 )"];
"-1599207580" -> "875336110" [label="( ROLL P1 3 5 )"];
"-1599207580" -> "875363018" [label="( ROLL P1 4 2 )"];
"-1599207580" -> "875304397" [label="( ROLL P1 2 3 )"];
"-1599207580" -> "875332266" [label="( ROLL P1 3 1 )"];
"-1599207580" -> "875272684" [label="( ROLL P1 1 1 )"];
"-1599207580" -> "875275567" [label="( ROLL P1 1 4 )"];
"-1599207580" -> "875273645" [label="( ROLL P1 1 2 )"];
"-1599207580" -> "875335149" [label="( ROLL P1 3 4 )"];
"-1599207580" -> "875305358" [label="( ROLL P1 2 4 )"];
"-1599207580" -> "875333227" [label="( ROLL P1 3 2 )"];
"-1599207580" -> "875391848" [label="( ROLL P1 5 1 )"];
"-1599207580" -> "875362057" [label="( ROLL P1 4 1 )"];
"-1599207580" -> "875424522" [label="( ROLL P1 6 4 )"];
"-1599207580" -> "875366862" [label="( ROLL P1 4 6 )"];
"-1599207580" -> "875302475" [label="( ROLL P1 2 1 )"];
"-1599207580" -> "875303436" [label="( ROLL P1 2 2 )"];
"-1599207580" -> "875421639" [label="( ROLL P1 6 1 )"];
"875421639" [label="0.02777777777777777"];
"875303436" [label="0.02777777777777777"];
"875302475" [label="0.02777777777777777"];
"875366862" [label="0.02777777777777777"];
"875424522" [label="0.02777777777777777"];
"875362057" [label="0.02777777777777777"];
"875391848" [label="0.02777777777777777"];
"875333227" [label="0.02777777777777777"];
"875305358" [label="0.02777777777777777"];
"875335149" [label="0.02777777777777777"];
"875273645" [label="0.02777777777777777"];
"875275567" [label="0.02777777777777777"];
"875272684" [label="0.02777777777777777"];
"875332266" [label="0.02777777777777777"];
"875304397" [label="0.02777777777777777"];
"875363018" [label="0.02777777777777777"];
"875336110" [label="0.02777777777777777"];
"875363979" [label="0.02777777777777777"];
"875365901" [label="0.02777777777777777"];
"875307280" [label="0.02777777777777777"];
"875337071" [label="0.02777777777777777"];
"875395692" [label="0.02777777777777777"];
"875396653" [label="0.02777777777777777"];
"875394731" [label="0.02777777777777777"];
"875393770" [label="0.02777777777777777"];
"875425483" [label="0.02777777777777777"];
"875422600" [label="0.02777777777777777"];
"875426444" [label="0.02777777777777777"];
"875334188" [label="0.02777777777777777"];
"875276528" [label="0.02777777777777777"];
"875392809" [label="0.02777777777777777"];
"875274606" [label="0.02777777777777777"];
"875364940" [label="0.02777777777777777"];
"875423561" [label="0.02777777777777777"];
"875306319" [label="0.02777777777777777"];
"875277489" [label="0.02777777777777777"];
"875421639" -> "143407608" [label="NOOP"];
"143407608" -> "131272965" [label="( CLAIM 3 3 )"];
"143407608" -> "72167621" [label="( CLAIM 1 1 )"];
"143407608" -> "189454788" [label="( CLAIM 5 4 )"];
"143407608" -> "100796772" [label="( CLAIM 2 1 )"];
"143407608" -> "216236897" [label="( CLAIM 6 2 )"];
"143407608" -> "219007460" [label="( CLAIM 6 5 )"];
"143407608" -> "217160418" [label="( CLAIM 6 3 )"];
"143407608" -> "101720293" [label="( CLAIM 2 2 )"];
"143407608" -> "219930981" [label="( CLAIM 6 6 )"];
"143407608" -> "158978595" [label="( CLAIM 4 2 )"];
"143407608" -> "187607746" [label="( CLAIM 5 2 )"];
"143407608" -> "190378309" [label="( CLAIM 5 5 )"];
"143407608" -> "158055074" [label="( CLAIM 4 1 )"];
"143407608" -> "159902116" [label="( CLAIM 4 3 )"];
"143407608" -> "218083939" [label="( CLAIM 6 4 )"];
"143407608" -> "160825637" [label="( CLAIM 4 4 )"];
"143407608" -> "129425923" [label="( CLAIM 3 1 )"];
"143407608" -> "188531267" [label="( CLAIM 5 3 )"];
"143407608" -> "186684225" [label="( CLAIM 5 1 )"];
"143407608" -> "215313376" [label="( CLAIM 6 1 )"];
"143407608" -> "130349444" [label="( CLAIM 3 2 )"];
"130349444" -> "-861951149" [label="NOOP"];
"215313376" -> "-776987217" [label="NOOP"];
"186684225" -> "-805616368" [label="NOOP"];
"188531267" -> "-803769326" [label="NOOP"];
"129425923" -> "-862874670" [label="NOOP"];
"160825637" -> "-831474956" [label="NOOP"];
"218083939" -> "-774216654" [label="NOOP"];
"159902116" -> "-832398477" [label="NOOP"];
"158055074" -> "-834245519" [label="NOOP"];
"190378309" -> "-801922284" [label="NOOP"];
"187607746" -> "-804692847" [label="NOOP"];
"158978595" -> "-833321998" [label="NOOP"];
"219930981" -> "-772369612" [label="NOOP"];
"101720293" -> "-890580300" [label="NOOP"];
"217160418" -> "-775140175" [label="NOOP"];
"219007460" -> "-773293133" [label="NOOP"];
"216236897" -> "-776063696" [label="NOOP"];
"100796772" -> "-891503821" [label="NOOP"];
"189454788" -> "-802845805" [label="NOOP"];
"72167621" -> "-920132972" [label="NOOP"];
"131272965" -> "-861027628" [label="NOOP"];
"875303436" -> "143289405" [label="NOOP"];
"143289405" -> "-1657615601" [label="( CLAIM 3 3 )"];
"143289405" -> "-1716720945" [label="( CLAIM 1 1 )"];
"143289405" -> "-1599433778" [label="( CLAIM 5 4 )"];
"143289405" -> "-1688091794" [label="( CLAIM 2 1 )"];
"143289405" -> "-1572651669" [label="( CLAIM 6 2 )"];
"143289405" -> "-1569881106" [label="( CLAIM 6 5 )"];
"143289405" -> "-1571728148" [label="( CLAIM 6 3 )"];
"143289405" -> "-1687168273" [label="( CLAIM 2 2 )"];
"143289405" -> "-1568957585" [label="( CLAIM 6 6 )"];
"143289405" -> "-1629909971" [label="( CLAIM 4 2 )"];
"143289405" -> "-1601280820" [label="( CLAIM 5 2 )"];
"143289405" -> "-1598510257" [label="( CLAIM 5 5 )"];
"143289405" -> "-1630833492" [label="( CLAIM 4 1 )"];
"143289405" -> "-1628986450" [label="( CLAIM 4 3 )"];
"143289405" -> "-1570804627" [label="( CLAIM 6 4 )"];
"143289405" -> "-1628062929" [label="( CLAIM 4 4 )"];
"143289405" -> "-1659462643" [label="( CLAIM 3 1 )"];
"143289405" -> "-1600357299" [label="( CLAIM 5 3 )"];
"143289405" -> "-1602204341" [label="( CLAIM 5 1 )"];
"143289405" -> "-1573575190" [label="( CLAIM 6 1 )"];
"143289405" -> "-1658539122" [label="( CLAIM 3 2 )"];
"-1658539122" -> "1640581491" [label="NOOP"];
"-1573575190" -> "1725545423" [label="NOOP"];
"-1602204341" -> "1696916272" [label="NOOP"];
"-1600357299" -> "1698763314" [label="NOOP"];
"-1659462643" -> "1639657970" [label="NOOP"];
"-1628062929" -> "1671057684" [label="NOOP"];
"-1570804627" -> "1728315986" [label="NOOP"];
"-1628986450" -> "1670134163" [label="NOOP"];
"-1630833492" -> "1668287121" [label="NOOP"];
"-1598510257" -> "1700610356" [label="NOOP"];
"-1601280820" -> "1697839793" [label="NOOP"];
"-1629909971" -> "1669210642" [label="NOOP"];
"-1568957585" -> "1730163028" [label="NOOP"];
"-1687168273" -> "1611952340" [label="NOOP"];
"-1571728148" -> "1727392465" [label="NOOP"];
"-1569881106" -> "1729239507" [label="NOOP"];
"-1572651669" -> "1726468944" [label="NOOP"];
"-1688091794" -> "1611028819" [label="NOOP"];
"-1599433778" -> "1699686835" [label="NOOP"];
"-1716720945" -> "1582399668" [label="NOOP"];
"-1657615601" -> "1641505012" [label="NOOP"];
"875302475" -> "143288444" [label="NOOP"];
"143288444" -> "1749847053" [label="( CLAIM 3 3 )"];
"143288444" -> "1690741709" [label="( CLAIM 1 1 )"];
"143288444" -> "1808028876" [label="( CLAIM 5 4 )"];
"143288444" -> "1719370860" [label="( CLAIM 2 1 )"];
"143288444" -> "1834810985" [label="( CLAIM 6 2 )"];
"143288444" -> "1837581548" [label="( CLAIM 6 5 )"];
"143288444" -> "1835734506" [label="( CLAIM 6 3 )"];
"143288444" -> "1720294381" [label="( CLAIM 2 2 )"];
"143288444" -> "1838505069" [label="( CLAIM 6 6 )"];
"143288444" -> "1777552683" [label="( CLAIM 4 2 )"];
"143288444" -> "1806181834" [label="( CLAIM 5 2 )"];
"143288444" -> "1808952397" [label="( CLAIM 5 5 )"];
"143288444" -> "1776629162" [label="( CLAIM 4 1 )"];
"143288444" -> "1778476204" [label="( CLAIM 4 3 )"];
"143288444" -> "1836658027" [label="( CLAIM 6 4 )"];
"143288444" -> "1779399725" [label="( CLAIM 4 4 )"];
"143288444" -> "1748000011" [label="( CLAIM 3 1 )"];
"143288444" -> "1807105355" [label="( CLAIM 5 3 )"];
"143288444" -> "1805258313" [label="( CLAIM 5 1 )"];
"143288444" -> "1833887464" [label="( CLAIM 6 1 )"];
"143288444" -> "1748923532" [label="( CLAIM 3 2 )"];
"1748923532" -> "753048019" [label="NOOP"];
"1833887464" -> "838011951" [label="NOOP"];
"1805258313" -> "809382800" [label="NOOP"];
"1807105355" -> "811229842" [label="NOOP"];
"1748000011" -> "752124498" [label="NOOP"];
"1779399725" -> "783524212" [label="NOOP"];
"1836658027" -> "840782514" [label="NOOP"];
"1778476204" -> "782600691" [label="NOOP"];
"1776629162" -> "780753649" [label="NOOP"];
"1808952397" -> "813076884" [label="NOOP"];
"1806181834" -> "810306321" [label="NOOP"];
"1777552683" -> "781677170" [label="NOOP"];
"1838505069" -> "842629556" [label="NOOP"];
"1720294381" -> "724418868" [label="NOOP"];
"1835734506" -> "839858993" [label="NOOP"];
"1837581548" -> "841706035" [label="NOOP"];
"1834810985" -> "838935472" [label="NOOP"];
"1719370860" -> "723495347" [label="NOOP"];
"1808028876" -> "812153363" [label="NOOP"];
"1690741709" -> "694866196" [label="NOOP"];
"1749847053" -> "753971540" [label="NOOP"];
"875366862" -> "143352831" [label="NOOP"];
"143352831" -> "1083115923" [label="( CLAIM 3 3 )"];
"143352831" -> "1024010579" [label="( CLAIM 1 1 )"];
"143352831" -> "1141297746" [label="( CLAIM 5 4 )"];
"143352831" -> "1052639730" [label="( CLAIM 2 1 )"];
"143352831" -> "1168079855" [label="( CLAIM 6 2 )"];
"143352831" -> "1170850418" [label="( CLAIM 6 5 )"];
"143352831" -> "1169003376" [label="( CLAIM 6 3 )"];
"143352831" -> "1053563251" [label="( CLAIM 2 2 )"];
"143352831" -> "1171773939" [label="( CLAIM 6 6 )"];
"143352831" -> "1110821553" [label="( CLAIM 4 2 )"];
"143352831" -> "1139450704" [label="( CLAIM 5 2 )"];
"143352831" -> "1142221267" [label="( CLAIM 5 5 )"];
"143352831" -> "1109898032" [label="( CLAIM 4 1 )"];
"143352831" -> "1111745074" [label="( CLAIM 4 3 )"];
"143352831" -> "1169926897" [label="( CLAIM 6 4 )"];
"143352831" -> "1112668595" [label="( CLAIM 4 4 )"];
"143352831" -> "1081268881" [label="( CLAIM 3 1 )"];
"143352831" -> "1140374225" [label="( CLAIM 5 3 )"];
"143352831" -> "1138527183" [label="( CLAIM 5 1 )"];
"143352831" -> "1167156334" [label="( CLAIM 6 1 )"];
"143352831" -> "1082192402" [label="( CLAIM 3 2 )"];
"1082192402" -> "88248499" [label="NOOP"];
"1167156334" -> "173212431" [label="NOOP"];
"1138527183" -> "144583280" [label="NOOP"];
"1140374225" -> "146430322" [label="NOOP"];
"1081268881" -> "87324978" [label="NOOP"];
"1112668595" -> "118724692" [label="NOOP"];
"1169926897" -> "175982994" [label="NOOP"];
"1111745074" -> "117801171" [label="NOOP"];
"1109898032" -> "115954129" [label="NOOP"];
"1142221267" -> "148277364" [label="NOOP"];
"1139450704" -> "145506801" [label="NOOP"];
"1110821553" -> "116877650" [label="NOOP"];
"1171773939" -> "177830036" [label="NOOP"];
"1053563251" -> "59619348" [label="NOOP"];
"1169003376" -> "175059473" [label="NOOP"];
"1170850418" -> "176906515" [label="NOOP"];
"1168079855" -> "174135952" [label="NOOP"];
"1052639730" -> "58695827" [label="NOOP"];
"1141297746" -> "147353843" [label="NOOP"];
"1024010579" -> "30066676" [label="NOOP"];
"1083115923" -> "89172020" [label="NOOP"];
"875424522" -> "143410491" [label="NOOP"];
"143410491" -> "-1501180405" [label="( CLAIM 3 3 )"];
"143410491" -> "-1560285749" [label="( CLAIM 1 1 )"];
"143410491" -> "-1442998582" [label="( CLAIM 5 4 )"];
"143410491" -> "-1531656598" [label="( CLAIM 2 1 )"];
"143410491" -> "-1416216473" [label="( CLAIM 6 2 )"];
"143410491" -> "-1413445910" [label="( CLAIM 6 5 )"];
"143410491" -> "-1415292952" [label="( CLAIM 6 3 )"];
"143410491" -> "-1530733077" [label="( CLAIM 2 2 )"];
"143410491" -> "-1412522389" [label="( CLAIM 6 6 )"];
"143410491" -> "-1473474775" [label="( CLAIM 4 2 )"];
"143410491" -> "-1444845624" [label="( CLAIM 5 2 )"];
"143410491" -> "-1442075061" [label="( CLAIM 5 5 )"];
"143410491" -> "-1474398296" [label="( CLAIM 4 1 )"];
"143410491" -> "-1472551254" [label="( CLAIM 4 3 )"];
"143410491" -> "-1414369431" [label="( CLAIM 6 4 )"];
"143410491" -> "-1471627733" [label="( CLAIM 4 4 )"];
"143410491" -> "-1503027447" [label="( CLAIM 3 1 )"];
"143410491" -> "-1443922103" [label="( CLAIM 5 3 )"];
"143410491" -> "-1445769145" [label="( CLAIM 5 1 )"];
"143410491" -> "-1417139994" [label="( CLAIM 6 1 )"];
"143410491" -> "-1502103926" [label="( CLAIM 3 2 )"];
"-1502103926" -> "1800649267" [label="NOOP"];
"-1417139994" -> "1885613199" [label="NOOP"];
"-1445769145" -> "1856984048" [label="NOOP"];
"-1443922103" -> "1858831090" [label="NOOP"];
"-1503027447" -> "1799725746" [label="NOOP"];
"-1471627733" -> "1831125460" [label="NOOP"];
"-1414369431" -> "1888383762" [label="NOOP"];
"-1472551254" -> "1830201939" [label="NOOP"];
"-1474398296" -> "1828354897" [label="NOOP"];
"-1442075061" -> "1860678132" [label="NOOP"];
"-1444845624" -> "1857907569" [label="NOOP"];
"-1473474775" -> "1829278418" [label="NOOP"];
"-1412522389" -> "1890230804" [label="NOOP"];
"-1530733077" -> "1772020116" [label="NOOP"];
"-1415292952" -> "1887460241" [label="NOOP"];
"-1413445910" -> "1889307283" [label="NOOP"];
"-1416216473" -> "1886536720" [label="NOOP"];
"-1531656598" -> "1771096595" [label="NOOP"];
"-1442998582" -> "1859754611" [label="NOOP"];
"-1560285749" -> "1742467444" [label="NOOP"];
"-1501180405" -> "1801572788" [label="NOOP"];
"875362057" -> "143348026" [label="NOOP"];
"143348026" -> "940560009" [label="( CLAIM 3 3 )"];
"143348026" -> "881454665" [label="( CLAIM 1 1 )"];
"143348026" -> "998741832" [label="( CLAIM 5 4 )"];
"143348026" -> "910083816" [label="( CLAIM 2 1 )"];
"143348026" -> "1025523941" [label="( CLAIM 6 2 )"];
"143348026" -> "1028294504" [label="( CLAIM 6 5 )"];
"143348026" -> "1026447462" [label="( CLAIM 6 3 )"];
"143348026" -> "911007337" [label="( CLAIM 2 2 )"];
"143348026" -> "1029218025" [label="( CLAIM 6 6 )"];
"143348026" -> "968265639" [label="( CLAIM 4 2 )"];
"143348026" -> "996894790" [label="( CLAIM 5 2 )"];
"143348026" -> "999665353" [label="( CLAIM 5 5 )"];
"143348026" -> "967342118" [label="( CLAIM 4 1 )"];
"143348026" -> "969189160" [label="( CLAIM 4 3 )"];
"143348026" -> "1027370983" [label="( CLAIM 6 4 )"];
"143348026" -> "970112681" [label="( CLAIM 4 4 )"];
"143348026" -> "938712967" [label="( CLAIM 3 1 )"];
"143348026" -> "997818311" [label="( CLAIM 5 3 )"];
"143348026" -> "995971269" [label="( CLAIM 5 1 )"];
"143348026" -> "1024600420" [label="( CLAIM 6 1 )"];
"143348026" -> "939636488" [label="( CLAIM 3 2 )"];
"939636488" -> "-54451565" [label="NOOP"];
"1024600420" -> "30512367" [label="NOOP"];
"995971269" -> "1883216" [label="NOOP"];
"997818311" -> "3730258" [label="NOOP"];
"938712967" -> "-55375086" [label="NOOP"];
"970112681" -> "-23975372" [label="NOOP"];
"1027370983" -> "33282930" [label="NOOP"];
"969189160" -> "-24898893" [label="NOOP"];
"967342118" -> "-26745935" [label="NOOP"];
"999665353" -> "5577300" [label="NOOP"];
"996894790" -> "2806737" [label="NOOP"];
"968265639" -> "-25822414" [label="NOOP"];
"1029218025" -> "35129972" [label="NOOP"];
"911007337" -> "-83080716" [label="NOOP"];
"1026447462" -> "32359409" [label="NOOP"];
"1028294504" -> "34206451" [label="NOOP"];
"1025523941" -> "31435888" [label="NOOP"];
"910083816" -> "-84004237" [label="NOOP"];
"998741832" -> "4653779" [label="NOOP"];
"881454665" -> "-112633388" [label="NOOP"];
"940560009" -> "-53528044" [label="NOOP"];
"875391848" -> "143377817" [label="NOOP"];
"143377817" -> "-1611567161" [label="( CLAIM 3 3 )"];
"143377817" -> "-1670672505" [label="( CLAIM 1 1 )"];
"143377817" -> "-1553385338" [label="( CLAIM 5 4 )"];
"143377817" -> "-1642043354" [label="( CLAIM 2 1 )"];
"143377817" -> "-1526603229" [label="( CLAIM 6 2 )"];
"143377817" -> "-1523832666" [label="( CLAIM 6 5 )"];
"143377817" -> "-1525679708" [label="( CLAIM 6 3 )"];
"143377817" -> "-1641119833" [label="( CLAIM 2 2 )"];
"143377817" -> "-1522909145" [label="( CLAIM 6 6 )"];
"143377817" -> "-1583861531" [label="( CLAIM 4 2 )"];
"143377817" -> "-1555232380" [label="( CLAIM 5 2 )"];
"143377817" -> "-1552461817" [label="( CLAIM 5 5 )"];
"143377817" -> "-1584785052" [label="( CLAIM 4 1 )"];
"143377817" -> "-1582938010" [label="( CLAIM 4 3 )"];
"143377817" -> "-1524756187" [label="( CLAIM 6 4 )"];
"143377817" -> "-1582014489" [label="( CLAIM 4 4 )"];
"143377817" -> "-1613414203" [label="( CLAIM 3 1 )"];
"143377817" -> "-1554308859" [label="( CLAIM 5 3 )"];
"143377817" -> "-1556155901" [label="( CLAIM 5 1 )"];
"143377817" -> "-1527526750" [label="( CLAIM 6 1 )"];
"143377817" -> "-1612490682" [label="( CLAIM 3 2 )"];
"-1612490682" -> "1689282291" [label="NOOP"];
"-1527526750" -> "1774246223" [label="NOOP"];
"-1556155901" -> "1745617072" [label="NOOP"];
"-1554308859" -> "1747464114" [label="NOOP"];
"-1613414203" -> "1688358770" [label="NOOP"];
"-1582014489" -> "1719758484" [label="NOOP"];
"-1524756187" -> "1777016786" [label="NOOP"];
"-1582938010" -> "1718834963" [label="NOOP"];
"-1584785052" -> "1716987921" [label="NOOP"];
"-1552461817" -> "1749311156" [label="NOOP"];
"-1555232380" -> "1746540593" [label="NOOP"];
"-1583861531" -> "1717911442" [label="NOOP"];
"-1522909145" -> "1778863828" [label="NOOP"];
"-1641119833" -> "1660653140" [label="NOOP"];
"-1525679708" -> "1776093265" [label="NOOP"];
"-1523832666" -> "1777940307" [label="NOOP"];
"-1526603229" -> "1775169744" [label="NOOP"];
"-1642043354" -> "1659729619" [label="NOOP"];
"-1553385338" -> "1748387635" [label="NOOP"];
"-1670672505" -> "1631100468" [label="NOOP"];
"-1611567161" -> "1690205812" [label="NOOP"];
"875333227" -> "143319196" [label="NOOP"];
"143319196" -> "85224525" [label="( CLAIM 3 3 )"];
"143319196" -> "26119181" [label="( CLAIM 1 1 )"];
"143319196" -> "143406348" [label="( CLAIM 5 4 )"];
"143319196" -> "54748332" [label="( CLAIM 2 1 )"];
"143319196" -> "170188457" [label="( CLAIM 6 2 )"];
"143319196" -> "172959020" [label="( CLAIM 6 5 )"];
"143319196" -> "171111978" [label="( CLAIM 6 3 )"];
"143319196" -> "55671853" [label="( CLAIM 2 2 )"];
"143319196" -> "173882541" [label="( CLAIM 6 6 )"];
"143319196" -> "112930155" [label="( CLAIM 4 2 )"];
"143319196" -> "141559306" [label="( CLAIM 5 2 )"];
"143319196" -> "144329869" [label="( CLAIM 5 5 )"];
"143319196" -> "112006634" [label="( CLAIM 4 1 )"];
"143319196" -> "113853676" [label="( CLAIM 4 3 )"];
"143319196" -> "172035499" [label="( CLAIM 6 4 )"];
"143319196" -> "114777197" [label="( CLAIM 4 4 )"];
"143319196" -> "83377483" [label="( CLAIM 3 1 )"];
"143319196" -> "142482827" [label="( CLAIM 5 3 )"];
"143319196" -> "140635785" [label="( CLAIM 5 1 )"];
"143319196" -> "169264936" [label="( CLAIM 6 1 )"];
"143319196" -> "84301004" [label="( CLAIM 3 2 )"];
"84301004" -> "-910651949" [label="NOOP"];
"169264936" -> "-825688017" [label="NOOP"];
"140635785" -> "-854317168" [label="NOOP"];
"142482827" -> "-852470126" [label="NOOP"];
"83377483" -> "-911575470" [label="NOOP"];
"114777197" -> "-880175756" [label="NOOP"];
"172035499" -> "-822917454" [label="NOOP"];
"113853676" -> "-881099277" [label="NOOP"];
"112006634" -> "-882946319" [label="NOOP"];
"144329869" -> "-850623084" [label="NOOP"];
"141559306" -> "-853393647" [label="NOOP"];
"112930155" -> "-882022798" [label="NOOP"];
"173882541" -> "-821070412" [label="NOOP"];
"55671853" -> "-939281100" [label="NOOP"];
"171111978" -> "-823840975" [label="NOOP"];
"172959020" -> "-821993933" [label="NOOP"];
"170188457" -> "-824764496" [label="NOOP"];
"54748332" -> "-940204621" [label="NOOP"];
"143406348" -> "-851546605" [label="NOOP"];
"26119181" -> "-968833772" [label="NOOP"];
"85224525" -> "-909728428" [label="NOOP"];
"875305358" -> "143291327" [label="NOOP"];
"143291327" -> "117393683" [label="( CLAIM 3 3 )"];
"143291327" -> "58288339" [label="( CLAIM 1 1 )"];
"143291327" -> "175575506" [label="( CLAIM 5 4 )"];
"143291327" -> "86917490" [label="( CLAIM 2 1 )"];
"143291327" -> "202357615" [label="( CLAIM 6 2 )"];
"143291327" -> "205128178" [label="( CLAIM 6 5 )"];
"143291327" -> "203281136" [label="( CLAIM 6 3 )"];
"143291327" -> "87841011" [label="( CLAIM 2 2 )"];
"143291327" -> "206051699" [label="( CLAIM 6 6 )"];
"143291327" -> "145099313" [label="( CLAIM 4 2 )"];
"143291327" -> "173728464" [label="( CLAIM 5 2 )"];
"143291327" -> "176499027" [label="( CLAIM 5 5 )"];
"143291327" -> "144175792" [label="( CLAIM 4 1 )"];
"143291327" -> "146022834" [label="( CLAIM 4 3 )"];
"143291327" -> "204204657" [label="( CLAIM 6 4 )"];
"143291327" -> "146946355" [label="( CLAIM 4 4 )"];
"143291327" -> "115546641" [label="( CLAIM 3 1 )"];
"143291327" -> "174651985" [label="( CLAIM 5 3 )"];
"143291327" -> "172804943" [label="( CLAIM 5 1 )"];
"143291327" -> "201434094" [label="( CLAIM 6 1 )"];
"143291327" -> "116470162" [label="( CLAIM 3 2 )"];
"116470162" -> "-879318861" [label="NOOP"];
"201434094" -> "-794354929" [label="NOOP"];
"172804943" -> "-822984080" [label="NOOP"];
"174651985" -> "-821137038" [label="NOOP"];
"115546641" -> "-880242382" [label="NOOP"];
"146946355" -> "-848842668" [label="NOOP"];
"204204657" -> "-791584366" [label="NOOP"];
"146022834" -> "-849766189" [label="NOOP"];
"144175792" -> "-851613231" [label="NOOP"];
"176499027" -> "-819289996" [label="NOOP"];
"173728464" -> "-822060559" [label="NOOP"];
"145099313" -> "-850689710" [label="NOOP"];
"206051699" -> "-789737324" [label="NOOP"];
"87841011" -> "-907948012" [label="NOOP"];
"203281136" -> "-792507887" [label="NOOP"];
"205128178" -> "-790660845" [label="NOOP"];
"202357615" -> "-793431408" [label="NOOP"];
"86917490" -> "-908871533" [label="NOOP"];
"175575506" -> "-820213517" [label="NOOP"];
"58288339" -> "-937500684" [label="NOOP"];
"117393683" -> "-878395340" [label="NOOP"];
"875335149" -> "143321118" [label="NOOP"];
"143321118" -> "1860233809" [label="( CLAIM 3 3 )"];
"143321118" -> "1801128465" [label="( CLAIM 1 1 )"];
"143321118" -> "1918415632" [label="( CLAIM 5 4 )"];
"143321118" -> "1829757616" [label="( CLAIM 2 1 )"];
"143321118" -> "1945197741" [label="( CLAIM 6 2 )"];
"143321118" -> "1947968304" [label="( CLAIM 6 5 )"];
"143321118" -> "1946121262" [label="( CLAIM 6 3 )"];
"143321118" -> "1830681137" [label="( CLAIM 2 2 )"];
"143321118" -> "1948891825" [label="( CLAIM 6 6 )"];
"143321118" -> "1887939439" [label="( CLAIM 4 2 )"];
"143321118" -> "1916568590" [label="( CLAIM 5 2 )"];
"143321118" -> "1919339153" [label="( CLAIM 5 5 )"];
"143321118" -> "1887015918" [label="( CLAIM 4 1 )"];
"143321118" -> "1888862960" [label="( CLAIM 4 3 )"];
"143321118" -> "1947044783" [label="( CLAIM 6 4 )"];
"143321118" -> "1889786481" [label="( CLAIM 4 4 )"];
"143321118" -> "1858386767" [label="( CLAIM 3 1 )"];
"143321118" -> "1917492111" [label="( CLAIM 5 3 )"];
"143321118" -> "1915645069" [label="( CLAIM 5 1 )"];
"143321118" -> "1944274220" [label="( CLAIM 6 1 )"];
"143321118" -> "1859310288" [label="( CLAIM 3 2 )"];
"1859310288" -> "864414995" [label="NOOP"];
"1944274220" -> "949378927" [label="NOOP"];
"1915645069" -> "920749776" [label="NOOP"];
"1917492111" -> "922596818" [label="NOOP"];
"1858386767" -> "863491474" [label="NOOP"];
"1889786481" -> "894891188" [label="NOOP"];
"1947044783" -> "952149490" [label="NOOP"];
"1888862960" -> "893967667" [label="NOOP"];
"1887015918" -> "892120625" [label="NOOP"];
"1919339153" -> "924443860" [label="NOOP"];
"1916568590" -> "921673297" [label="NOOP"];
"1887939439" -> "893044146" [label="NOOP"];
"1948891825" -> "953996532" [label="NOOP"];
"1830681137" -> "835785844" [label="NOOP"];
"1946121262" -> "951225969" [label="NOOP"];
"1947968304" -> "953073011" [label="NOOP"];
"1945197741" -> "950302448" [label="NOOP"];
"1829757616" -> "834862323" [label="NOOP"];
"1918415632" -> "923520339" [label="NOOP"];
"1801128465" -> "806233172" [label="NOOP"];
"1860233809" -> "865338516" [label="NOOP"];
"875273645" -> "143259614" [label="NOOP"];
"143259614" -> "894511569" [label="( CLAIM 3 3 )"];
"143259614" -> "835406225" [label="( CLAIM 1 1 )"];
"143259614" -> "952693392" [label="( CLAIM 5 4 )"];
"143259614" -> "864035376" [label="( CLAIM 2 1 )"];
"143259614" -> "979475501" [label="( CLAIM 6 2 )"];
"143259614" -> "982246064" [label="( CLAIM 6 5 )"];
"143259614" -> "980399022" [label="( CLAIM 6 3 )"];
"143259614" -> "864958897" [label="( CLAIM 2 2 )"];
"143259614" -> "983169585" [label="( CLAIM 6 6 )"];
"143259614" -> "922217199" [label="( CLAIM 4 2 )"];
"143259614" -> "950846350" [label="( CLAIM 5 2 )"];
"143259614" -> "953616913" [label="( CLAIM 5 5 )"];
"143259614" -> "921293678" [label="( CLAIM 4 1 )"];
"143259614" -> "923140720" [label="( CLAIM 4 3 )"];
"143259614" -> "981322543" [label="( CLAIM 6 4 )"];
"143259614" -> "924064241" [label="( CLAIM 4 4 )"];
"143259614" -> "892664527" [label="( CLAIM 3 1 )"];
"143259614" -> "951769871" [label="( CLAIM 5 3 )"];
"143259614" -> "949922829" [label="( CLAIM 5 1 )"];
"143259614" -> "978551980" [label="( CLAIM 6 1 )"];
"143259614" -> "893588048" [label="( CLAIM 3 2 )"];
"893588048" -> "-103152365" [label="NOOP"];
"978551980" -> "-18188433" [label="NOOP"];
"949922829" -> "-46817584" [label="NOOP"];
"951769871" -> "-44970542" [label="NOOP"];
"892664527" -> "-104075886" [label="NOOP"];
"924064241" -> "-72676172" [label="NOOP"];
"981322543" -> "-15417870" [label="NOOP"];
"923140720" -> "-73599693" [label="NOOP"];
"921293678" -> "-75446735" [label="NOOP"];
"953616913" -> "-43123500" [label="NOOP"];
"950846350" -> "-45894063" [label="NOOP"];
"922217199" -> "-74523214" [label="NOOP"];
"983169585" -> "-13570828" [label="NOOP"];
"864958897" -> "-131781516" [label="NOOP"];
"980399022" -> "-16341391" [label="NOOP"];
"982246064" -> "-14494349" [label="NOOP"];
"979475501" -> "-17264912" [label="NOOP"];
"864035376" -> "-132705037" [label="NOOP"];
"952693392" -> "-44047021" [label="NOOP"];
"835406225" -> "-161334188" [label="NOOP"];
"894511569" -> "-102228844" [label="NOOP"];
"875275567" -> "143261536" [label="NOOP"];
"143261536" -> "-1625446443" [label="( CLAIM 3 3 )"];
"143261536" -> "-1684551787" [label="( CLAIM 1 1 )"];
"143261536" -> "-1567264620" [label="( CLAIM 5 4 )"];
"143261536" -> "-1655922636" [label="( CLAIM 2 1 )"];
"143261536" -> "-1540482511" [label="( CLAIM 6 2 )"];
"143261536" -> "-1537711948" [label="( CLAIM 6 5 )"];
"143261536" -> "-1539558990" [label="( CLAIM 6 3 )"];
"143261536" -> "-1654999115" [label="( CLAIM 2 2 )"];
"143261536" -> "-1536788427" [label="( CLAIM 6 6 )"];
"143261536" -> "-1597740813" [label="( CLAIM 4 2 )"];
"143261536" -> "-1569111662" [label="( CLAIM 5 2 )"];
"143261536" -> "-1566341099" [label="( CLAIM 5 5 )"];
"143261536" -> "-1598664334" [label="( CLAIM 4 1 )"];
"143261536" -> "-1596817292" [label="( CLAIM 4 3 )"];
"143261536" -> "-1538635469" [label="( CLAIM 6 4 )"];
"143261536" -> "-1595893771" [label="( CLAIM 4 4 )"];
"143261536" -> "-1627293485" [label="( CLAIM 3 1 )"];
"143261536" -> "-1568188141" [label="( CLAIM 5 3 )"];
"143261536" -> "-1570035183" [label="( CLAIM 5 1 )"];
"143261536" -> "-1541406032" [label="( CLAIM 6 1 )"];
"143261536" -> "-1626369964" [label="( CLAIM 3 2 )"];
"-1626369964" -> "1671914579" [label="NOOP"];
"-1541406032" -> "1756878511" [label="NOOP"];
"-1570035183" -> "1728249360" [label="NOOP"];
"-1568188141" -> "1730096402" [label="NOOP"];
"-1627293485" -> "1670991058" [label="NOOP"];
"-1595893771" -> "1702390772" [label="NOOP"];
"-1538635469" -> "1759649074" [label="NOOP"];
"-1596817292" -> "1701467251" [label="NOOP"];
"-1598664334" -> "1699620209" [label="NOOP"];
"-1566341099" -> "1731943444" [label="NOOP"];
"-1569111662" -> "1729172881" [label="NOOP"];
"-1597740813" -> "1700543730" [label="NOOP"];
"-1536788427" -> "1761496116" [label="NOOP"];
"-1654999115" -> "1643285428" [label="NOOP"];
"-1539558990" -> "1758725553" [label="NOOP"];
"-1537711948" -> "1760572595" [label="NOOP"];
"-1540482511" -> "1757802032" [label="NOOP"];
"-1655922636" -> "1642361907" [label="NOOP"];
"-1567264620" -> "1731019923" [label="NOOP"];
"-1684551787" -> "1613732756" [label="NOOP"];
"-1625446443" -> "1672838100" [label="NOOP"];
"875272684" -> "143258653" [label="NOOP"];
"143258653" -> "7006927" [label="( CLAIM 3 3 )"];
"143258653" -> "-52098417" [label="( CLAIM 1 1 )"];
"143258653" -> "65188750" [label="( CLAIM 5 4 )"];
"143258653" -> "-23469266" [label="( CLAIM 2 1 )"];
"143258653" -> "91970859" [label="( CLAIM 6 2 )"];
"143258653" -> "94741422" [label="( CLAIM 6 5 )"];
"143258653" -> "92894380" [label="( CLAIM 6 3 )"];
"143258653" -> "-22545745" [label="( CLAIM 2 2 )"];
"143258653" -> "95664943" [label="( CLAIM 6 6 )"];
"143258653" -> "34712557" [label="( CLAIM 4 2 )"];
"143258653" -> "63341708" [label="( CLAIM 5 2 )"];
"143258653" -> "66112271" [label="( CLAIM 5 5 )"];
"143258653" -> "33789036" [label="( CLAIM 4 1 )"];
"143258653" -> "35636078" [label="( CLAIM 4 3 )"];
"143258653" -> "93817901" [label="( CLAIM 6 4 )"];
"143258653" -> "36559599" [label="( CLAIM 4 4 )"];
"143258653" -> "5159885" [label="( CLAIM 3 1 )"];
"143258653" -> "64265229" [label="( CLAIM 5 3 )"];
"143258653" -> "62418187" [label="( CLAIM 5 1 )"];
"143258653" -> "91047338" [label="( CLAIM 6 1 )"];
"143258653" -> "6083406" [label="( CLAIM 3 2 )"];
"6083406" -> "-990685837" [label="NOOP"];
"91047338" -> "-905721905" [label="NOOP"];
"62418187" -> "-934351056" [label="NOOP"];
"64265229" -> "-932504014" [label="NOOP"];
"5159885" -> "-991609358" [label="NOOP"];
"36559599" -> "-960209644" [label="NOOP"];
"93817901" -> "-902951342" [label="NOOP"];
"35636078" -> "-961133165" [label="NOOP"];
"33789036" -> "-962980207" [label="NOOP"];
"66112271" -> "-930656972" [label="NOOP"];
"63341708" -> "-933427535" [label="NOOP"];
"34712557" -> "-962056686" [label="NOOP"];
"95664943" -> "-901104300" [label="NOOP"];
"-22545745" -> "-1019314988" [label="NOOP"];
"92894380" -> "-903874863" [label="NOOP"];
"94741422" -> "-902027821" [label="NOOP"];
"91970859" -> "-904798384" [label="NOOP"];
"-23469266" -> "-1020238509" [label="NOOP"];
"65188750" -> "-931580493" [label="NOOP"];
"-52098417" -> "-1048867660" [label="NOOP"];
"7006927" -> "-989762316" [label="NOOP"];
"875332266" -> "143318235" [label="NOOP"];
"143318235" -> "-802280117" [label="( CLAIM 3 3 )"];
"143318235" -> "-861385461" [label="( CLAIM 1 1 )"];
"143318235" -> "-744098294" [label="( CLAIM 5 4 )"];
"143318235" -> "-832756310" [label="( CLAIM 2 1 )"];
"143318235" -> "-717316185" [label="( CLAIM 6 2 )"];
"143318235" -> "-714545622" [label="( CLAIM 6 5 )"];
"143318235" -> "-716392664" [label="( CLAIM 6 3 )"];
"143318235" -> "-831832789" [label="( CLAIM 2 2 )"];
"143318235" -> "-713622101" [label="( CLAIM 6 6 )"];
"143318235" -> "-774574487" [label="( CLAIM 4 2 )"];
"143318235" -> "-745945336" [label="( CLAIM 5 2 )"];
"143318235" -> "-743174773" [label="( CLAIM 5 5 )"];
"143318235" -> "-775498008" [label="( CLAIM 4 1 )"];
"143318235" -> "-773650966" [label="( CLAIM 4 3 )"];
"143318235" -> "-715469143" [label="( CLAIM 6 4 )"];
"143318235" -> "-772727445" [label="( CLAIM 4 4 )"];
"143318235" -> "-804127159" [label="( CLAIM 3 1 )"];
"143318235" -> "-745021815" [label="( CLAIM 5 3 )"];
"143318235" -> "-746868857" [label="( CLAIM 5 1 )"];
"143318235" -> "-718239706" [label="( CLAIM 6 1 )"];
"143318235" -> "-803203638" [label="( CLAIM 3 2 )"];
"-803203638" -> "-1798185421" [label="NOOP"];
"-718239706" -> "-1713221489" [label="NOOP"];
"-746868857" -> "-1741850640" [label="NOOP"];
"-745021815" -> "-1740003598" [label="NOOP"];
"-804127159" -> "-1799108942" [label="NOOP"];
"-772727445" -> "-1767709228" [label="NOOP"];
"-715469143" -> "-1710450926" [label="NOOP"];
"-773650966" -> "-1768632749" [label="NOOP"];
"-775498008" -> "-1770479791" [label="NOOP"];
"-743174773" -> "-1738156556" [label="NOOP"];
"-745945336" -> "-1740927119" [label="NOOP"];
"-774574487" -> "-1769556270" [label="NOOP"];
"-713622101" -> "-1708603884" [label="NOOP"];
"-831832789" -> "-1826814572" [label="NOOP"];
"-716392664" -> "-1711374447" [label="NOOP"];
"-714545622" -> "-1709527405" [label="NOOP"];
"-717316185" -> "-1712297968" [label="NOOP"];
"-832756310" -> "-1827738093" [label="NOOP"];
"-744098294" -> "-1739080077" [label="NOOP"];
"-861385461" -> "-1856367244" [label="NOOP"];
"-802280117" -> "-1797261900" [label="NOOP"];
"875304397" -> "143290366" [label="NOOP"];
"143290366" -> "-770110959" [label="( CLAIM 3 3 )"];
"143290366" -> "-829216303" [label="( CLAIM 1 1 )"];
"143290366" -> "-711929136" [label="( CLAIM 5 4 )"];
"143290366" -> "-800587152" [label="( CLAIM 2 1 )"];
"143290366" -> "-685147027" [label="( CLAIM 6 2 )"];
"143290366" -> "-682376464" [label="( CLAIM 6 5 )"];
"143290366" -> "-684223506" [label="( CLAIM 6 3 )"];
"143290366" -> "-799663631" [label="( CLAIM 2 2 )"];
"143290366" -> "-681452943" [label="( CLAIM 6 6 )"];
"143290366" -> "-742405329" [label="( CLAIM 4 2 )"];
"143290366" -> "-713776178" [label="( CLAIM 5 2 )"];
"143290366" -> "-711005615" [label="( CLAIM 5 5 )"];
"143290366" -> "-743328850" [label="( CLAIM 4 1 )"];
"143290366" -> "-741481808" [label="( CLAIM 4 3 )"];
"143290366" -> "-683299985" [label="( CLAIM 6 4 )"];
"143290366" -> "-740558287" [label="( CLAIM 4 4 )"];
"143290366" -> "-771958001" [label="( CLAIM 3 1 )"];
"143290366" -> "-712852657" [label="( CLAIM 5 3 )"];
"143290366" -> "-714699699" [label="( CLAIM 5 1 )"];
"143290366" -> "-686070548" [label="( CLAIM 6 1 )"];
"143290366" -> "-771034480" [label="( CLAIM 3 2 )"];
"-771034480" -> "-1766852333" [label="NOOP"];
"-686070548" -> "-1681888401" [label="NOOP"];
"-714699699" -> "-1710517552" [label="NOOP"];
"-712852657" -> "-1708670510" [label="NOOP"];
"-771958001" -> "-1767775854" [label="NOOP"];
"-740558287" -> "-1736376140" [label="NOOP"];
"-683299985" -> "-1679117838" [label="NOOP"];
"-741481808" -> "-1737299661" [label="NOOP"];
"-743328850" -> "-1739146703" [label="NOOP"];
"-711005615" -> "-1706823468" [label="NOOP"];
"-713776178" -> "-1709594031" [label="NOOP"];
"-742405329" -> "-1738223182" [label="NOOP"];
"-681452943" -> "-1677270796" [label="NOOP"];
"-799663631" -> "-1795481484" [label="NOOP"];
"-684223506" -> "-1680041359" [label="NOOP"];
"-682376464" -> "-1678194317" [label="NOOP"];
"-685147027" -> "-1680964880" [label="NOOP"];
"-800587152" -> "-1796405005" [label="NOOP"];
"-711929136" -> "-1707746989" [label="NOOP"];
"-829216303" -> "-1825034156" [label="NOOP"];
"-770110959" -> "-1765928812" [label="NOOP"];
"875363018" -> "143348987" [label="NOOP"];
"143348987" -> "1828064651" [label="( CLAIM 3 3 )"];
"143348987" -> "1768959307" [label="( CLAIM 1 1 )"];
"143348987" -> "1886246474" [label="( CLAIM 5 4 )"];
"143348987" -> "1797588458" [label="( CLAIM 2 1 )"];
"143348987" -> "1913028583" [label="( CLAIM 6 2 )"];
"143348987" -> "1915799146" [label="( CLAIM 6 5 )"];
"143348987" -> "1913952104" [label="( CLAIM 6 3 )"];
"143348987" -> "1798511979" [label="( CLAIM 2 2 )"];
"143348987" -> "1916722667" [label="( CLAIM 6 6 )"];
"143348987" -> "1855770281" [label="( CLAIM 4 2 )"];
"143348987" -> "1884399432" [label="( CLAIM 5 2 )"];
"143348987" -> "1887169995" [label="( CLAIM 5 5 )"];
"143348987" -> "1854846760" [label="( CLAIM 4 1 )"];
"143348987" -> "1856693802" [label="( CLAIM 4 3 )"];
"143348987" -> "1914875625" [label="( CLAIM 6 4 )"];
"143348987" -> "1857617323" [label="( CLAIM 4 4 )"];
"143348987" -> "1826217609" [label="( CLAIM 3 1 )"];
"143348987" -> "1885322953" [label="( CLAIM 5 3 )"];
"143348987" -> "1883475911" [label="( CLAIM 5 1 )"];
"143348987" -> "1912105062" [label="( CLAIM 6 1 )"];
"143348987" -> "1827141130" [label="( CLAIM 3 2 )"];
"1827141130" -> "833081907" [label="NOOP"];
"1912105062" -> "918045839" [label="NOOP"];
"1883475911" -> "889416688" [label="NOOP"];
"1885322953" -> "891263730" [label="NOOP"];
"1826217609" -> "832158386" [label="NOOP"];
"1857617323" -> "863558100" [label="NOOP"];
"1914875625" -> "920816402" [label="NOOP"];
"1856693802" -> "862634579" [label="NOOP"];
"1854846760" -> "860787537" [label="NOOP"];
"1887169995" -> "893110772" [label="NOOP"];
"1884399432" -> "890340209" [label="NOOP"];
"1855770281" -> "861711058" [label="NOOP"];
"1916722667" -> "922663444" [label="NOOP"];
"1798511979" -> "804452756" [label="NOOP"];
"1913952104" -> "919892881" [label="NOOP"];
"1915799146" -> "921739923" [label="NOOP"];
"1913028583" -> "918969360" [label="NOOP"];
"1797588458" -> "803529235" [label="NOOP"];
"1886246474" -> "892187251" [label="NOOP"];
"1768959307" -> "774900084" [label="NOOP"];
"1828064651" -> "834005428" [label="NOOP"];
"875336110" -> "143322079" [label="NOOP"];
"143322079" -> "-1547228845" [label="( CLAIM 3 3 )"];
"143322079" -> "-1606334189" [label="( CLAIM 1 1 )"];
"143322079" -> "-1489047022" [label="( CLAIM 5 4 )"];
"143322079" -> "-1577705038" [label="( CLAIM 2 1 )"];
"143322079" -> "-1462264913" [label="( CLAIM 6 2 )"];
"143322079" -> "-1459494350" [label="( CLAIM 6 5 )"];
"143322079" -> "-1461341392" [label="( CLAIM 6 3 )"];
"143322079" -> "-1576781517" [label="( CLAIM 2 2 )"];
"143322079" -> "-1458570829" [label="( CLAIM 6 6 )"];
"143322079" -> "-1519523215" [label="( CLAIM 4 2 )"];
"143322079" -> "-1490894064" [label="( CLAIM 5 2 )"];
"143322079" -> "-1488123501" [label="( CLAIM 5 5 )"];
"143322079" -> "-1520446736" [label="( CLAIM 4 1 )"];
"143322079" -> "-1518599694" [label="( CLAIM 4 3 )"];
"143322079" -> "-1460417871" [label="( CLAIM 6 4 )"];
"143322079" -> "-1517676173" [label="( CLAIM 4 4 )"];
"143322079" -> "-1549075887" [label="( CLAIM 3 1 )"];
"143322079" -> "-1489970543" [label="( CLAIM 5 3 )"];
"143322079" -> "-1491817585" [label="( CLAIM 5 1 )"];
"143322079" -> "-1463188434" [label="( CLAIM 6 1 )"];
"143322079" -> "-1548152366" [label="( CLAIM 3 2 )"];
"-1548152366" -> "1751948467" [label="NOOP"];
"-1463188434" -> "1836912399" [label="NOOP"];
"-1491817585" -> "1808283248" [label="NOOP"];
"-1489970543" -> "1810130290" [label="NOOP"];
"-1549075887" -> "1751024946" [label="NOOP"];
"-1517676173" -> "1782424660" [label="NOOP"];
"-1460417871" -> "1839682962" [label="NOOP"];
"-1518599694" -> "1781501139" [label="NOOP"];
"-1520446736" -> "1779654097" [label="NOOP"];
"-1488123501" -> "1811977332" [label="NOOP"];
"-1490894064" -> "1809206769" [label="NOOP"];
"-1519523215" -> "1780577618" [label="NOOP"];
"-1458570829" -> "1841530004" [label="NOOP"];
"-1576781517" -> "1723319316" [label="NOOP"];
"-1461341392" -> "1838759441" [label="NOOP"];
"-1459494350" -> "1840606483" [label="NOOP"];
"-1462264913" -> "1837835920" [label="NOOP"];
"-1577705038" -> "1722395795" [label="NOOP"];
"-1489047022" -> "1811053811" [label="NOOP"];
"-1606334189" -> "1693766644" [label="NOOP"];
"-1547228845" -> "1752871988" [label="NOOP"];
"875363979" -> "143349948" [label="NOOP"];
"143349948" -> "-1579398003" [label="( CLAIM 3 3 )"];
"143349948" -> "-1638503347" [label="( CLAIM 1 1 )"];
"143349948" -> "-1521216180" [label="( CLAIM 5 4 )"];
"143349948" -> "-1609874196" [label="( CLAIM 2 1 )"];
"143349948" -> "-1494434071" [label="( CLAIM 6 2 )"];
"143349948" -> "-1491663508" [label="( CLAIM 6 5 )"];
"143349948" -> "-1493510550" [label="( CLAIM 6 3 )"];
"143349948" -> "-1608950675" [label="( CLAIM 2 2 )"];
"143349948" -> "-1490739987" [label="( CLAIM 6 6 )"];
"143349948" -> "-1551692373" [label="( CLAIM 4 2 )"];
"143349948" -> "-1523063222" [label="( CLAIM 5 2 )"];
"143349948" -> "-1520292659" [label="( CLAIM 5 5 )"];
"143349948" -> "-1552615894" [label="( CLAIM 4 1 )"];
"143349948" -> "-1550768852" [label="( CLAIM 4 3 )"];
"143349948" -> "-1492587029" [label="( CLAIM 6 4 )"];
"143349948" -> "-1549845331" [label="( CLAIM 4 4 )"];
"143349948" -> "-1581245045" [label="( CLAIM 3 1 )"];
"143349948" -> "-1522139701" [label="( CLAIM 5 3 )"];
"143349948" -> "-1523986743" [label="( CLAIM 5 1 )"];
"143349948" -> "-1495357592" [label="( CLAIM 6 1 )"];
"143349948" -> "-1580321524" [label="( CLAIM 3 2 )"];
"-1580321524" -> "1720615379" [label="NOOP"];
"-1495357592" -> "1805579311" [label="NOOP"];
"-1523986743" -> "1776950160" [label="NOOP"];
"-1522139701" -> "1778797202" [label="NOOP"];
"-1581245045" -> "1719691858" [label="NOOP"];
"-1549845331" -> "1751091572" [label="NOOP"];
"-1492587029" -> "1808349874" [label="NOOP"];
"-1550768852" -> "1750168051" [label="NOOP"];
"-1552615894" -> "1748321009" [label="NOOP"];
"-1520292659" -> "1780644244" [label="NOOP"];
"-1523063222" -> "1777873681" [label="NOOP"];
"-1551692373" -> "1749244530" [label="NOOP"];
"-1490739987" -> "1810196916" [label="NOOP"];
"-1608950675" -> "1691986228" [label="NOOP"];
"-1493510550" -> "1807426353" [label="NOOP"];
"-1491663508" -> "1809273395" [label="NOOP"];
"-1494434071" -> "1806502832" [label="NOOP"];
"-1609874196" -> "1691062707" [label="NOOP"];
"-1521216180" -> "1779720723" [label="NOOP"];
"-1638503347" -> "1662433556" [label="NOOP"];
"-1579398003" -> "1721538900" [label="NOOP"];
"875365901" -> "143351870" [label="NOOP"];
"143351870" -> "195611281" [label="( CLAIM 3 3 )"];
"143351870" -> "136505937" [label="( CLAIM 1 1 )"];
"143351870" -> "253793104" [label="( CLAIM 5 4 )"];
"143351870" -> "165135088" [label="( CLAIM 2 1 )"];
"143351870" -> "280575213" [label="( CLAIM 6 2 )"];
"143351870" -> "283345776" [label="( CLAIM 6 5 )"];
"143351870" -> "281498734" [label="( CLAIM 6 3 )"];
"143351870" -> "166058609" [label="( CLAIM 2 2 )"];
"143351870" -> "284269297" [label="( CLAIM 6 6 )"];
"143351870" -> "223316911" [label="( CLAIM 4 2 )"];
"143351870" -> "251946062" [label="( CLAIM 5 2 )"];
"143351870" -> "254716625" [label="( CLAIM 5 5 )"];
"143351870" -> "222393390" [label="( CLAIM 4 1 )"];
"143351870" -> "224240432" [label="( CLAIM 4 3 )"];
"143351870" -> "282422255" [label="( CLAIM 6 4 )"];
"143351870" -> "225163953" [label="( CLAIM 4 4 )"];
"143351870" -> "193764239" [label="( CLAIM 3 1 )"];
"143351870" -> "252869583" [label="( CLAIM 5 3 )"];
"143351870" -> "251022541" [label="( CLAIM 5 1 )"];
"143351870" -> "279651692" [label="( CLAIM 6 1 )"];
"143351870" -> "194687760" [label="( CLAIM 3 2 )"];
"194687760" -> "-799284973" [label="NOOP"];
"279651692" -> "-714321041" [label="NOOP"];
"251022541" -> "-742950192" [label="NOOP"];
"252869583" -> "-741103150" [label="NOOP"];
"193764239" -> "-800208494" [label="NOOP"];
"225163953" -> "-768808780" [label="NOOP"];
"282422255" -> "-711550478" [label="NOOP"];
"224240432" -> "-769732301" [label="NOOP"];
"222393390" -> "-771579343" [label="NOOP"];
"254716625" -> "-739256108" [label="NOOP"];
"251946062" -> "-742026671" [label="NOOP"];
"223316911" -> "-770655822" [label="NOOP"];
"284269297" -> "-709703436" [label="NOOP"];
"166058609" -> "-827914124" [label="NOOP"];
"281498734" -> "-712473999" [label="NOOP"];
"283345776" -> "-710626957" [label="NOOP"];
"280575213" -> "-713397520" [label="NOOP"];
"165135088" -> "-828837645" [label="NOOP"];
"253793104" -> "-740179629" [label="NOOP"];
"136505937" -> "-857466796" [label="NOOP"];
"195611281" -> "-798361452" [label="NOOP"];
"875307280" -> "143293249" [label="NOOP"];
"143293249" -> "1892402967" [label="( CLAIM 3 3 )"];
"143293249" -> "1833297623" [label="( CLAIM 1 1 )"];
"143293249" -> "1950584790" [label="( CLAIM 5 4 )"];
"143293249" -> "1861926774" [label="( CLAIM 2 1 )"];
"143293249" -> "1977366899" [label="( CLAIM 6 2 )"];
"143293249" -> "1980137462" [label="( CLAIM 6 5 )"];
"143293249" -> "1978290420" [label="( CLAIM 6 3 )"];
"143293249" -> "1862850295" [label="( CLAIM 2 2 )"];
"143293249" -> "1981060983" [label="( CLAIM 6 6 )"];
"143293249" -> "1920108597" [label="( CLAIM 4 2 )"];
"143293249" -> "1948737748" [label="( CLAIM 5 2 )"];
"143293249" -> "1951508311" [label="( CLAIM 5 5 )"];
"143293249" -> "1919185076" [label="( CLAIM 4 1 )"];
"143293249" -> "1921032118" [label="( CLAIM 4 3 )"];
"143293249" -> "1979213941" [label="( CLAIM 6 4 )"];
"143293249" -> "1921955639" [label="( CLAIM 4 4 )"];
"143293249" -> "1890555925" [label="( CLAIM 3 1 )"];
"143293249" -> "1949661269" [label="( CLAIM 5 3 )"];
"143293249" -> "1947814227" [label="( CLAIM 5 1 )"];
"143293249" -> "1976443378" [label="( CLAIM 6 1 )"];
"143293249" -> "1891479446" [label="( CLAIM 3 2 )"];
"1891479446" -> "895748083" [label="NOOP"];
"1976443378" -> "980712015" [label="NOOP"];
"1947814227" -> "952082864" [label="NOOP"];
"1949661269" -> "953929906" [label="NOOP"];
"1890555925" -> "894824562" [label="NOOP"];
"1921955639" -> "926224276" [label="NOOP"];
"1979213941" -> "983482578" [label="NOOP"];
"1921032118" -> "925300755" [label="NOOP"];
"1919185076" -> "923453713" [label="NOOP"];
"1951508311" -> "955776948" [label="NOOP"];
"1948737748" -> "953006385" [label="NOOP"];
"1920108597" -> "924377234" [label="NOOP"];
"1981060983" -> "985329620" [label="NOOP"];
"1862850295" -> "867118932" [label="NOOP"];
"1978290420" -> "982559057" [label="NOOP"];
"1980137462" -> "984406099" [label="NOOP"];
"1977366899" -> "981635536" [label="NOOP"];
"1861926774" -> "866195411" [label="NOOP"];
"1950584790" -> "954853427" [label="NOOP"];
"1833297623" -> "837566260" [label="NOOP"];
"1892402967" -> "896671604" [label="NOOP"];
"875337071" -> "143323040" [label="NOOP"];
"143323040" -> "-659724203" [label="( CLAIM 3 3 )"];
"143323040" -> "-718829547" [label="( CLAIM 1 1 )"];
"143323040" -> "-601542380" [label="( CLAIM 5 4 )"];
"143323040" -> "-690200396" [label="( CLAIM 2 1 )"];
"143323040" -> "-574760271" [label="( CLAIM 6 2 )"];
"143323040" -> "-571989708" [label="( CLAIM 6 5 )"];
"143323040" -> "-573836750" [label="( CLAIM 6 3 )"];
"143323040" -> "-689276875" [label="( CLAIM 2 2 )"];
"143323040" -> "-571066187" [label="( CLAIM 6 6 )"];
"143323040" -> "-632018573" [label="( CLAIM 4 2 )"];
"143323040" -> "-603389422" [label="( CLAIM 5 2 )"];
"143323040" -> "-600618859" [label="( CLAIM 5 5 )"];
"143323040" -> "-632942094" [label="( CLAIM 4 1 )"];
"143323040" -> "-631095052" [label="( CLAIM 4 3 )"];
"143323040" -> "-572913229" [label="( CLAIM 6 4 )"];
"143323040" -> "-630171531" [label="( CLAIM 4 4 )"];
"143323040" -> "-661571245" [label="( CLAIM 3 1 )"];
"143323040" -> "-602465901" [label="( CLAIM 5 3 )"];
"143323040" -> "-604312943" [label="( CLAIM 5 1 )"];
"143323040" -> "-575683792" [label="( CLAIM 6 1 )"];
"143323040" -> "-660647724" [label="( CLAIM 3 2 )"];
"-660647724" -> "-1655485357" [label="NOOP"];
"-575683792" -> "-1570521425" [label="NOOP"];
"-604312943" -> "-1599150576" [label="NOOP"];
"-602465901" -> "-1597303534" [label="NOOP"];
"-661571245" -> "-1656408878" [label="NOOP"];
"-630171531" -> "-1625009164" [label="NOOP"];
"-572913229" -> "-1567750862" [label="NOOP"];
"-631095052" -> "-1625932685" [label="NOOP"];
"-632942094" -> "-1627779727" [label="NOOP"];
"-600618859" -> "-1595456492" [label="NOOP"];
"-603389422" -> "-1598227055" [label="NOOP"];
"-632018573" -> "-1626856206" [label="NOOP"];
"-571066187" -> "-1565903820" [label="NOOP"];
"-689276875" -> "-1684114508" [label="NOOP"];
"-573836750" -> "-1568674383" [label="NOOP"];
"-571989708" -> "-1566827341" [label="NOOP"];
"-574760271" -> "-1569597904" [label="NOOP"];
"-690200396" -> "-1685038029" [label="NOOP"];
"-601542380" -> "-1596380013" [label="NOOP"];
"-718829547" -> "-1713667180" [label="NOOP"];
"-659724203" -> "-1654561836" [label="NOOP"];
"875395692" -> "143381661" [label="NOOP"];
"143381661" -> "1938451407" [label="( CLAIM 3 3 )"];
"143381661" -> "1879346063" [label="( CLAIM 1 1 )"];
"143381661" -> "1996633230" [label="( CLAIM 5 4 )"];
"143381661" -> "1907975214" [label="( CLAIM 2 1 )"];
"143381661" -> "2023415339" [label="( CLAIM 6 2 )"];
"143381661" -> "2026185902" [label="( CLAIM 6 5 )"];
"143381661" -> "2024338860" [label="( CLAIM 6 3 )"];
"143381661" -> "1908898735" [label="( CLAIM 2 2 )"];
"143381661" -> "2027109423" [label="( CLAIM 6 6 )"];
"143381661" -> "1966157037" [label="( CLAIM 4 2 )"];
"143381661" -> "1994786188" [label="( CLAIM 5 2 )"];
"143381661" -> "1997556751" [label="( CLAIM 5 5 )"];
"143381661" -> "1965233516" [label="( CLAIM 4 1 )"];
"143381661" -> "1967080558" [label="( CLAIM 4 3 )"];
"143381661" -> "2025262381" [label="( CLAIM 6 4 )"];
"143381661" -> "1968004079" [label="( CLAIM 4 4 )"];
"143381661" -> "1936604365" [label="( CLAIM 3 1 )"];
"143381661" -> "1995709709" [label="( CLAIM 5 3 )"];
"143381661" -> "1993862667" [label="( CLAIM 5 1 )"];
"143381661" -> "2022491818" [label="( CLAIM 6 1 )"];
"143381661" -> "1937527886" [label="( CLAIM 3 2 )"];
"1937527886" -> "944448883" [label="NOOP"];
"2022491818" -> "1029412815" [label="NOOP"];
"1993862667" -> "1000783664" [label="NOOP"];
"1995709709" -> "1002630706" [label="NOOP"];
"1936604365" -> "943525362" [label="NOOP"];
"1968004079" -> "974925076" [label="NOOP"];
"2025262381" -> "1032183378" [label="NOOP"];
"1967080558" -> "974001555" [label="NOOP"];
"1965233516" -> "972154513" [label="NOOP"];
"1997556751" -> "1004477748" [label="NOOP"];
"1994786188" -> "1001707185" [label="NOOP"];
"1966157037" -> "973078034" [label="NOOP"];
"2027109423" -> "1034030420" [label="NOOP"];
"1908898735" -> "915819732" [label="NOOP"];
"2024338860" -> "1031259857" [label="NOOP"];
"2026185902" -> "1033106899" [label="NOOP"];
"2023415339" -> "1030336336" [label="NOOP"];
"1907975214" -> "914896211" [label="NOOP"];
"1996633230" -> "1003554227" [label="NOOP"];
"1879346063" -> "886267060" [label="NOOP"];
"1938451407" -> "945372404" [label="NOOP"];
"875396653" -> "143382622" [label="NOOP"];
"143382622" -> "-1469011247" [label="( CLAIM 3 3 )"];
"143382622" -> "-1528116591" [label="( CLAIM 1 1 )"];
"143382622" -> "-1410829424" [label="( CLAIM 5 4 )"];
"143382622" -> "-1499487440" [label="( CLAIM 2 1 )"];
"143382622" -> "-1384047315" [label="( CLAIM 6 2 )"];
"143382622" -> "-1381276752" [label="( CLAIM 6 5 )"];
"143382622" -> "-1383123794" [label="( CLAIM 6 3 )"];
"143382622" -> "-1498563919" [label="( CLAIM 2 2 )"];
"143382622" -> "-1380353231" [label="( CLAIM 6 6 )"];
"143382622" -> "-1441305617" [label="( CLAIM 4 2 )"];
"143382622" -> "-1412676466" [label="( CLAIM 5 2 )"];
"143382622" -> "-1409905903" [label="( CLAIM 5 5 )"];
"143382622" -> "-1442229138" [label="( CLAIM 4 1 )"];
"143382622" -> "-1440382096" [label="( CLAIM 4 3 )"];
"143382622" -> "-1382200273" [label="( CLAIM 6 4 )"];
"143382622" -> "-1439458575" [label="( CLAIM 4 4 )"];
"143382622" -> "-1470858289" [label="( CLAIM 3 1 )"];
"143382622" -> "-1411752945" [label="( CLAIM 5 3 )"];
"143382622" -> "-1413599987" [label="( CLAIM 5 1 )"];
"143382622" -> "-1384970836" [label="( CLAIM 6 1 )"];
"143382622" -> "-1469934768" [label="( CLAIM 3 2 )"];
"-1469934768" -> "1831982355" [label="NOOP"];
"-1384970836" -> "1916946287" [label="NOOP"];
"-1413599987" -> "1888317136" [label="NOOP"];
"-1411752945" -> "1890164178" [label="NOOP"];
"-1470858289" -> "1831058834" [label="NOOP"];
"-1439458575" -> "1862458548" [label="NOOP"];
"-1382200273" -> "1919716850" [label="NOOP"];
"-1440382096" -> "1861535027" [label="NOOP"];
"-1442229138" -> "1859687985" [label="NOOP"];
"-1409905903" -> "1892011220" [label="NOOP"];
"-1412676466" -> "1889240657" [label="NOOP"];
"-1441305617" -> "1860611506" [label="NOOP"];
"-1380353231" -> "1921563892" [label="NOOP"];
"-1498563919" -> "1803353204" [label="NOOP"];
"-1383123794" -> "1918793329" [label="NOOP"];
"-1381276752" -> "1920640371" [label="NOOP"];
"-1384047315" -> "1917869808" [label="NOOP"];
"-1499487440" -> "1802429683" [label="NOOP"];
"-1410829424" -> "1891087699" [label="NOOP"];
"-1528116591" -> "1773800532" [label="NOOP"];
"-1469011247" -> "1832905876" [label="NOOP"];
"875394731" -> "143380700" [label="NOOP"];
"143380700" -> "1050946765" [label="( CLAIM 3 3 )"];
"143380700" -> "991841421" [label="( CLAIM 1 1 )"];
"143380700" -> "1109128588" [label="( CLAIM 5 4 )"];
"143380700" -> "1020470572" [label="( CLAIM 2 1 )"];
"143380700" -> "1135910697" [label="( CLAIM 6 2 )"];
"143380700" -> "1138681260" [label="( CLAIM 6 5 )"];
"143380700" -> "1136834218" [label="( CLAIM 6 3 )"];
"143380700" -> "1021394093" [label="( CLAIM 2 2 )"];
"143380700" -> "1139604781" [label="( CLAIM 6 6 )"];
"143380700" -> "1078652395" [label="( CLAIM 4 2 )"];
"143380700" -> "1107281546" [label="( CLAIM 5 2 )"];
"143380700" -> "1110052109" [label="( CLAIM 5 5 )"];
"143380700" -> "1077728874" [label="( CLAIM 4 1 )"];
"143380700" -> "1079575916" [label="( CLAIM 4 3 )"];
"143380700" -> "1137757739" [label="( CLAIM 6 4 )"];
"143380700" -> "1080499437" [label="( CLAIM 4 4 )"];
"143380700" -> "1049099723" [label="( CLAIM 3 1 )"];
"143380700" -> "1108205067" [label="( CLAIM 5 3 )"];
"143380700" -> "1106358025" [label="( CLAIM 5 1 )"];
"143380700" -> "1134987176" [label="( CLAIM 6 1 )"];
"143380700" -> "1050023244" [label="( CLAIM 3 2 )"];
"1050023244" -> "56915411" [label="NOOP"];
"1134987176" -> "141879343" [label="NOOP"];
"1106358025" -> "113250192" [label="NOOP"];
"1108205067" -> "115097234" [label="NOOP"];
"1049099723" -> "55991890" [label="NOOP"];
"1080499437" -> "87391604" [label="NOOP"];
"1137757739" -> "144649906" [label="NOOP"];
"1079575916" -> "86468083" [label="NOOP"];
"1077728874" -> "84621041" [label="NOOP"];
"1110052109" -> "116944276" [label="NOOP"];
"1107281546" -> "114173713" [label="NOOP"];
"1078652395" -> "85544562" [label="NOOP"];
"1139604781" -> "146496948" [label="NOOP"];
"1021394093" -> "28286260" [label="NOOP"];
"1136834218" -> "143726385" [label="NOOP"];
"1138681260" -> "145573427" [label="NOOP"];
"1135910697" -> "142802864" [label="NOOP"];
"1020470572" -> "27362739" [label="NOOP"];
"1109128588" -> "116020755" [label="NOOP"];
"991841421" -> "-1266412" [label="NOOP"];
"1050946765" -> "57838932" [label="NOOP"];
"875393770" -> "143379739" [label="NOOP"];
"143379739" -> "163442123" [label="( CLAIM 3 3 )"];
"143379739" -> "104336779" [label="( CLAIM 1 1 )"];
"143379739" -> "221623946" [label="( CLAIM 5 4 )"];
"143379739" -> "132965930" [label="( CLAIM 2 1 )"];
"143379739" -> "248406055" [label="( CLAIM 6 2 )"];
"143379739" -> "251176618" [label="( CLAIM 6 5 )"];
"143379739" -> "249329576" [label="( CLAIM 6 3 )"];
"143379739" -> "133889451" [label="( CLAIM 2 2 )"];
"143379739" -> "252100139" [label="( CLAIM 6 6 )"];
"143379739" -> "191147753" [label="( CLAIM 4 2 )"];
"143379739" -> "219776904" [label="( CLAIM 5 2 )"];
"143379739" -> "222547467" [label="( CLAIM 5 5 )"];
"143379739" -> "190224232" [label="( CLAIM 4 1 )"];
"143379739" -> "192071274" [label="( CLAIM 4 3 )"];
"143379739" -> "250253097" [label="( CLAIM 6 4 )"];
"143379739" -> "192994795" [label="( CLAIM 4 4 )"];
"143379739" -> "161595081" [label="( CLAIM 3 1 )"];
"143379739" -> "220700425" [label="( CLAIM 5 3 )"];
"143379739" -> "218853383" [label="( CLAIM 5 1 )"];
"143379739" -> "247482534" [label="( CLAIM 6 1 )"];
"143379739" -> "162518602" [label="( CLAIM 3 2 )"];
"162518602" -> "-830618061" [label="NOOP"];
"247482534" -> "-745654129" [label="NOOP"];
"218853383" -> "-774283280" [label="NOOP"];
"220700425" -> "-772436238" [label="NOOP"];
"161595081" -> "-831541582" [label="NOOP"];
"192994795" -> "-800141868" [label="NOOP"];
"250253097" -> "-742883566" [label="NOOP"];
"192071274" -> "-801065389" [label="NOOP"];
"190224232" -> "-802912431" [label="NOOP"];
"222547467" -> "-770589196" [label="NOOP"];
"219776904" -> "-773359759" [label="NOOP"];
"191147753" -> "-801988910" [label="NOOP"];
"252100139" -> "-741036524" [label="NOOP"];
"133889451" -> "-859247212" [label="NOOP"];
"249329576" -> "-743807087" [label="NOOP"];
"251176618" -> "-741960045" [label="NOOP"];
"248406055" -> "-744730608" [label="NOOP"];
"132965930" -> "-860170733" [label="NOOP"];
"221623946" -> "-771512717" [label="NOOP"];
"104336779" -> "-888799884" [label="NOOP"];
"163442123" -> "-829694540" [label="NOOP"];
"875425483" -> "143411452" [label="NOOP"];
"143411452" -> "-613675763" [label="( CLAIM 3 3 )"];
"143411452" -> "-672781107" [label="( CLAIM 1 1 )"];
"143411452" -> "-555493940" [label="( CLAIM 5 4 )"];
"143411452" -> "-644151956" [label="( CLAIM 2 1 )"];
"143411452" -> "-528711831" [label="( CLAIM 6 2 )"];
"143411452" -> "-525941268" [label="( CLAIM 6 5 )"];
"143411452" -> "-527788310" [label="( CLAIM 6 3 )"];
"143411452" -> "-643228435" [label="( CLAIM 2 2 )"];
"143411452" -> "-525017747" [label="( CLAIM 6 6 )"];
"143411452" -> "-585970133" [label="( CLAIM 4 2 )"];
"143411452" -> "-557340982" [label="( CLAIM 5 2 )"];
"143411452" -> "-554570419" [label="( CLAIM 5 5 )"];
"143411452" -> "-586893654" [label="( CLAIM 4 1 )"];
"143411452" -> "-585046612" [label="( CLAIM 4 3 )"];
"143411452" -> "-526864789" [label="( CLAIM 6 4 )"];
"143411452" -> "-584123091" [label="( CLAIM 4 4 )"];
"143411452" -> "-615522805" [label="( CLAIM 3 1 )"];
"143411452" -> "-556417461" [label="( CLAIM 5 3 )"];
"143411452" -> "-558264503" [label="( CLAIM 5 1 )"];
"143411452" -> "-529635352" [label="( CLAIM 6 1 )"];
"143411452" -> "-614599284" [label="( CLAIM 3 2 )"];
"-614599284" -> "-1606784557" [label="NOOP"];
"-529635352" -> "-1521820625" [label="NOOP"];
"-558264503" -> "-1550449776" [label="NOOP"];
"-556417461" -> "-1548602734" [label="NOOP"];
"-615522805" -> "-1607708078" [label="NOOP"];
"-584123091" -> "-1576308364" [label="NOOP"];
"-526864789" -> "-1519050062" [label="NOOP"];
"-585046612" -> "-1577231885" [label="NOOP"];
"-586893654" -> "-1579078927" [label="NOOP"];
"-554570419" -> "-1546755692" [label="NOOP"];
"-557340982" -> "-1549526255" [label="NOOP"];
"-585970133" -> "-1578155406" [label="NOOP"];
"-525017747" -> "-1517203020" [label="NOOP"];
"-643228435" -> "-1635413708" [label="NOOP"];
"-527788310" -> "-1519973583" [label="NOOP"];
"-525941268" -> "-1518126541" [label="NOOP"];
"-528711831" -> "-1520897104" [label="NOOP"];
"-644151956" -> "-1636337229" [label="NOOP"];
"-555493940" -> "-1547679213" [label="NOOP"];
"-672781107" -> "-1664966380" [label="NOOP"];
"-613675763" -> "-1605861036" [label="NOOP"];
"875422600" -> "143408569" [label="NOOP"];
"143408569" -> "1018777607" [label="( CLAIM 3 3 )"];
"143408569" -> "959672263" [label="( CLAIM 1 1 )"];
"143408569" -> "1076959430" [label="( CLAIM 5 4 )"];
"143408569" -> "988301414" [label="( CLAIM 2 1 )"];
"143408569" -> "1103741539" [label="( CLAIM 6 2 )"];
"143408569" -> "1106512102" [label="( CLAIM 6 5 )"];
"143408569" -> "1104665060" [label="( CLAIM 6 3 )"];
"143408569" -> "989224935" [label="( CLAIM 2 2 )"];
"143408569" -> "1107435623" [label="( CLAIM 6 6 )"];
"143408569" -> "1046483237" [label="( CLAIM 4 2 )"];
"143408569" -> "1075112388" [label="( CLAIM 5 2 )"];
"143408569" -> "1077882951" [label="( CLAIM 5 5 )"];
"143408569" -> "1045559716" [label="( CLAIM 4 1 )"];
"143408569" -> "1047406758" [label="( CLAIM 4 3 )"];
"143408569" -> "1105588581" [label="( CLAIM 6 4 )"];
"143408569" -> "1048330279" [label="( CLAIM 4 4 )"];
"143408569" -> "1016930565" [label="( CLAIM 3 1 )"];
"143408569" -> "1076035909" [label="( CLAIM 5 3 )"];
"143408569" -> "1074188867" [label="( CLAIM 5 1 )"];
"143408569" -> "1102818018" [label="( CLAIM 6 1 )"];
"143408569" -> "1017854086" [label="( CLAIM 3 2 )"];
"1017854086" -> "25582323" [label="NOOP"];
"1102818018" -> "110546255" [label="NOOP"];
"1074188867" -> "81917104" [label="NOOP"];
"1076035909" -> "83764146" [label="NOOP"];
"1016930565" -> "24658802" [label="NOOP"];
"1048330279" -> "56058516" [label="NOOP"];
"1105588581" -> "113316818" [label="NOOP"];
"1047406758" -> "55134995" [label="NOOP"];
"1045559716" -> "53287953" [label="NOOP"];
"1077882951" -> "85611188" [label="NOOP"];
"1075112388" -> "82840625" [label="NOOP"];
"1046483237" -> "54211474" [label="NOOP"];
"1107435623" -> "115163860" [label="NOOP"];
"989224935" -> "-3046828" [label="NOOP"];
"1104665060" -> "112393297" [label="NOOP"];
"1106512102" -> "114240339" [label="NOOP"];
"1103741539" -> "111469776" [label="NOOP"];
"988301414" -> "-3970349" [label="NOOP"];
"1076959430" -> "84687667" [label="NOOP"];
"959672263" -> "-32599500" [label="NOOP"];
"1018777607" -> "26505844" [label="NOOP"];
"875426444" -> "143412413" [label="NOOP"];
"143412413" -> "273828879" [label="( CLAIM 3 3 )"];
"143412413" -> "214723535" [label="( CLAIM 1 1 )"];
"143412413" -> "332010702" [label="( CLAIM 5 4 )"];
"143412413" -> "243352686" [label="( CLAIM 2 1 )"];
"143412413" -> "358792811" [label="( CLAIM 6 2 )"];
"143412413" -> "361563374" [label="( CLAIM 6 5 )"];
"143412413" -> "359716332" [label="( CLAIM 6 3 )"];
"143412413" -> "244276207" [label="( CLAIM 2 2 )"];
"143412413" -> "362486895" [label="( CLAIM 6 6 )"];
"143412413" -> "301534509" [label="( CLAIM 4 2 )"];
"143412413" -> "330163660" [label="( CLAIM 5 2 )"];
"143412413" -> "332934223" [label="( CLAIM 5 5 )"];
"143412413" -> "300610988" [label="( CLAIM 4 1 )"];
"143412413" -> "302458030" [label="( CLAIM 4 3 )"];
"143412413" -> "360639853" [label="( CLAIM 6 4 )"];
"143412413" -> "303381551" [label="( CLAIM 4 4 )"];
"143412413" -> "271981837" [label="( CLAIM 3 1 )"];
"143412413" -> "331087181" [label="( CLAIM 5 3 )"];
"143412413" -> "329240139" [label="( CLAIM 5 1 )"];
"143412413" -> "357869290" [label="( CLAIM 6 1 )"];
"143412413" -> "272905358" [label="( CLAIM 3 2 )"];
"272905358" -> "-719251085" [label="NOOP"];
"357869290" -> "-634287153" [label="NOOP"];
"329240139" -> "-662916304" [label="NOOP"];
"331087181" -> "-661069262" [label="NOOP"];
"271981837" -> "-720174606" [label="NOOP"];
"303381551" -> "-688774892" [label="NOOP"];
"360639853" -> "-631516590" [label="NOOP"];
"302458030" -> "-689698413" [label="NOOP"];
"300610988" -> "-691545455" [label="NOOP"];
"332934223" -> "-659222220" [label="NOOP"];
"330163660" -> "-661992783" [label="NOOP"];
"301534509" -> "-690621934" [label="NOOP"];
"362486895" -> "-629669548" [label="NOOP"];
"244276207" -> "-747880236" [label="NOOP"];
"359716332" -> "-632440111" [label="NOOP"];
"361563374" -> "-630593069" [label="NOOP"];
"358792811" -> "-633363632" [label="NOOP"];
"243352686" -> "-748803757" [label="NOOP"];
"332010702" -> "-660145741" [label="NOOP"];
"214723535" -> "-777432908" [label="NOOP"];
"273828879" -> "-718327564" [label="NOOP"];
"875334188" -> "143320157" [label="NOOP"];
"143320157" -> "972729167" [label="( CLAIM 3 3 )"];
"143320157" -> "913623823" [label="( CLAIM 1 1 )"];
"143320157" -> "1030910990" [label="( CLAIM 5 4 )"];
"143320157" -> "942252974" [label="( CLAIM 2 1 )"];
"143320157" -> "1057693099" [label="( CLAIM 6 2 )"];
"143320157" -> "1060463662" [label="( CLAIM 6 5 )"];
"143320157" -> "1058616620" [label="( CLAIM 6 3 )"];
"143320157" -> "943176495" [label="( CLAIM 2 2 )"];
"143320157" -> "1061387183" [label="( CLAIM 6 6 )"];
"143320157" -> "1000434797" [label="( CLAIM 4 2 )"];
"143320157" -> "1029063948" [label="( CLAIM 5 2 )"];
"143320157" -> "1031834511" [label="( CLAIM 5 5 )"];
"143320157" -> "999511276" [label="( CLAIM 4 1 )"];
"143320157" -> "1001358318" [label="( CLAIM 4 3 )"];
"143320157" -> "1059540141" [label="( CLAIM 6 4 )"];
"143320157" -> "1002281839" [label="( CLAIM 4 4 )"];
"143320157" -> "970882125" [label="( CLAIM 3 1 )"];
"143320157" -> "1029987469" [label="( CLAIM 5 3 )"];
"143320157" -> "1028140427" [label="( CLAIM 5 1 )"];
"143320157" -> "1056769578" [label="( CLAIM 6 1 )"];
"143320157" -> "971805646" [label="( CLAIM 3 2 )"];
"971805646" -> "-23118477" [label="NOOP"];
"1056769578" -> "61845455" [label="NOOP"];
"1028140427" -> "33216304" [label="NOOP"];
"1029987469" -> "35063346" [label="NOOP"];
"970882125" -> "-24041998" [label="NOOP"];
"1002281839" -> "7357716" [label="NOOP"];
"1059540141" -> "64616018" [label="NOOP"];
"1001358318" -> "6434195" [label="NOOP"];
"999511276" -> "4587153" [label="NOOP"];
"1031834511" -> "36910388" [label="NOOP"];
"1029063948" -> "34139825" [label="NOOP"];
"1000434797" -> "5510674" [label="NOOP"];
"1061387183" -> "66463060" [label="NOOP"];
"943176495" -> "-51747628" [label="NOOP"];
"1058616620" -> "63692497" [label="NOOP"];
"1060463662" -> "65539539" [label="NOOP"];
"1057693099" -> "62768976" [label="NOOP"];
"942252974" -> "-52671149" [label="NOOP"];
"1030910990" -> "35986867" [label="NOOP"];
"913623823" -> "-81300300" [label="NOOP"];
"972729167" -> "-22194956" [label="NOOP"];
"875276528" -> "143262497" [label="NOOP"];
"143262497" -> "-737941801" [label="( CLAIM 3 3 )"];
"143262497" -> "-797047145" [label="( CLAIM 1 1 )"];
"143262497" -> "-679759978" [label="( CLAIM 5 4 )"];
"143262497" -> "-768417994" [label="( CLAIM 2 1 )"];
"143262497" -> "-652977869" [label="( CLAIM 6 2 )"];
"143262497" -> "-650207306" [label="( CLAIM 6 5 )"];
"143262497" -> "-652054348" [label="( CLAIM 6 3 )"];
"143262497" -> "-767494473" [label="( CLAIM 2 2 )"];
"143262497" -> "-649283785" [label="( CLAIM 6 6 )"];
"143262497" -> "-710236171" [label="( CLAIM 4 2 )"];
"143262497" -> "-681607020" [label="( CLAIM 5 2 )"];
"143262497" -> "-678836457" [label="( CLAIM 5 5 )"];
"143262497" -> "-711159692" [label="( CLAIM 4 1 )"];
"143262497" -> "-709312650" [label="( CLAIM 4 3 )"];
"143262497" -> "-651130827" [label="( CLAIM 6 4 )"];
"143262497" -> "-708389129" [label="( CLAIM 4 4 )"];
"143262497" -> "-739788843" [label="( CLAIM 3 1 )"];
"143262497" -> "-680683499" [label="( CLAIM 5 3 )"];
"143262497" -> "-682530541" [label="( CLAIM 5 1 )"];
"143262497" -> "-653901390" [label="( CLAIM 6 1 )"];
"143262497" -> "-738865322" [label="( CLAIM 3 2 )"];
"-738865322" -> "-1735519245" [label="NOOP"];
"-653901390" -> "-1650555313" [label="NOOP"];
"-682530541" -> "-1679184464" [label="NOOP"];
"-680683499" -> "-1677337422" [label="NOOP"];
"-739788843" -> "-1736442766" [label="NOOP"];
"-708389129" -> "-1705043052" [label="NOOP"];
"-651130827" -> "-1647784750" [label="NOOP"];
"-709312650" -> "-1705966573" [label="NOOP"];
"-711159692" -> "-1707813615" [label="NOOP"];
"-678836457" -> "-1675490380" [label="NOOP"];
"-681607020" -> "-1678260943" [label="NOOP"];
"-710236171" -> "-1706890094" [label="NOOP"];
"-649283785" -> "-1645937708" [label="NOOP"];
"-767494473" -> "-1764148396" [label="NOOP"];
"-652054348" -> "-1648708271" [label="NOOP"];
"-650207306" -> "-1646861229" [label="NOOP"];
"-652977869" -> "-1649631792" [label="NOOP"];
"-768417994" -> "-1765071917" [label="NOOP"];
"-679759978" -> "-1676413901" [label="NOOP"];
"-797047145" -> "-1793701068" [label="NOOP"];
"-737941801" -> "-1734595724" [label="NOOP"];
"875392809" -> "143378778" [label="NOOP"];
"143378778" -> "-724062519" [label="( CLAIM 3 3 )"];
"143378778" -> "-783167863" [label="( CLAIM 1 1 )"];
"143378778" -> "-665880696" [label="( CLAIM 5 4 )"];
"143378778" -> "-754538712" [label="( CLAIM 2 1 )"];
"143378778" -> "-639098587" [label="( CLAIM 6 2 )"];
"143378778" -> "-636328024" [label="( CLAIM 6 5 )"];
"143378778" -> "-638175066" [label="( CLAIM 6 3 )"];
"143378778" -> "-753615191" [label="( CLAIM 2 2 )"];
"143378778" -> "-635404503" [label="( CLAIM 6 6 )"];
"143378778" -> "-696356889" [label="( CLAIM 4 2 )"];
"143378778" -> "-667727738" [label="( CLAIM 5 2 )"];
"143378778" -> "-664957175" [label="( CLAIM 5 5 )"];
"143378778" -> "-697280410" [label="( CLAIM 4 1 )"];
"143378778" -> "-695433368" [label="( CLAIM 4 3 )"];
"143378778" -> "-637251545" [label="( CLAIM 6 4 )"];
"143378778" -> "-694509847" [label="( CLAIM 4 4 )"];
"143378778" -> "-725909561" [label="( CLAIM 3 1 )"];
"143378778" -> "-666804217" [label="( CLAIM 5 3 )"];
"143378778" -> "-668651259" [label="( CLAIM 5 1 )"];
"143378778" -> "-640022108" [label="( CLAIM 6 1 )"];
"143378778" -> "-724986040" [label="( CLAIM 3 2 )"];
"-724986040" -> "-1718151533" [label="NOOP"];
"-640022108" -> "-1633187601" [label="NOOP"];
"-668651259" -> "-1661816752" [label="NOOP"];
"-666804217" -> "-1659969710" [label="NOOP"];
"-725909561" -> "-1719075054" [label="NOOP"];
"-694509847" -> "-1687675340" [label="NOOP"];
"-637251545" -> "-1630417038" [label="NOOP"];
"-695433368" -> "-1688598861" [label="NOOP"];
"-697280410" -> "-1690445903" [label="NOOP"];
"-664957175" -> "-1658122668" [label="NOOP"];
"-667727738" -> "-1660893231" [label="NOOP"];
"-696356889" -> "-1689522382" [label="NOOP"];
"-635404503" -> "-1628569996" [label="NOOP"];
"-753615191" -> "-1746780684" [label="NOOP"];
"-638175066" -> "-1631340559" [label="NOOP"];
"-636328024" -> "-1629493517" [label="NOOP"];
"-639098587" -> "-1632264080" [label="NOOP"];
"-754538712" -> "-1747704205" [label="NOOP"];
"-665880696" -> "-1659046189" [label="NOOP"];
"-783167863" -> "-1776333356" [label="NOOP"];
"-724062519" -> "-1717228012" [label="NOOP"];
"875274606" -> "143260575" [label="NOOP"];
"143260575" -> "1782016211" [label="( CLAIM 3 3 )"];
"143260575" -> "1722910867" [label="( CLAIM 1 1 )"];
"143260575" -> "1840198034" [label="( CLAIM 5 4 )"];
"143260575" -> "1751540018" [label="( CLAIM 2 1 )"];
"143260575" -> "1866980143" [label="( CLAIM 6 2 )"];
"143260575" -> "1869750706" [label="( CLAIM 6 5 )"];
"143260575" -> "1867903664" [label="( CLAIM 6 3 )"];
"143260575" -> "1752463539" [label="( CLAIM 2 2 )"];
"143260575" -> "1870674227" [label="( CLAIM 6 6 )"];
"143260575" -> "1809721841" [label="( CLAIM 4 2 )"];
"143260575" -> "1838350992" [label="( CLAIM 5 2 )"];
"143260575" -> "1841121555" [label="( CLAIM 5 5 )"];
"143260575" -> "1808798320" [label="( CLAIM 4 1 )"];
"143260575" -> "1810645362" [label="( CLAIM 4 3 )"];
"143260575" -> "1868827185" [label="( CLAIM 6 4 )"];
"143260575" -> "1811568883" [label="( CLAIM 4 4 )"];
"143260575" -> "1780169169" [label="( CLAIM 3 1 )"];
"143260575" -> "1839274513" [label="( CLAIM 5 3 )"];
"143260575" -> "1837427471" [label="( CLAIM 5 1 )"];
"143260575" -> "1866056622" [label="( CLAIM 6 1 )"];
"143260575" -> "1781092690" [label="( CLAIM 3 2 )"];
"1781092690" -> "784381107" [label="NOOP"];
"1866056622" -> "869345039" [label="NOOP"];
"1837427471" -> "840715888" [label="NOOP"];
"1839274513" -> "842562930" [label="NOOP"];
"1780169169" -> "783457586" [label="NOOP"];
"1811568883" -> "814857300" [label="NOOP"];
"1868827185" -> "872115602" [label="NOOP"];
"1810645362" -> "813933779" [label="NOOP"];
"1808798320" -> "812086737" [label="NOOP"];
"1841121555" -> "844409972" [label="NOOP"];
"1838350992" -> "841639409" [label="NOOP"];
"1809721841" -> "813010258" [label="NOOP"];
"1870674227" -> "873962644" [label="NOOP"];
"1752463539" -> "755751956" [label="NOOP"];
"1867903664" -> "871192081" [label="NOOP"];
"1869750706" -> "873039123" [label="NOOP"];
"1866980143" -> "870268560" [label="NOOP"];
"1751540018" -> "754828435" [label="NOOP"];
"1840198034" -> "843486451" [label="NOOP"];
"1722910867" -> "726199284" [label="NOOP"];
"1782016211" -> "785304628" [label="NOOP"];
"875364940" -> "143350909" [label="NOOP"];
"143350909" -> "-691893361" [label="( CLAIM 3 3 )"];
"143350909" -> "-750998705" [label="( CLAIM 1 1 )"];
"143350909" -> "-633711538" [label="( CLAIM 5 4 )"];
"143350909" -> "-722369554" [label="( CLAIM 2 1 )"];
"143350909" -> "-606929429" [label="( CLAIM 6 2 )"];
"143350909" -> "-604158866" [label="( CLAIM 6 5 )"];
"143350909" -> "-606005908" [label="( CLAIM 6 3 )"];
"143350909" -> "-721446033" [label="( CLAIM 2 2 )"];
"143350909" -> "-603235345" [label="( CLAIM 6 6 )"];
"143350909" -> "-664187731" [label="( CLAIM 4 2 )"];
"143350909" -> "-635558580" [label="( CLAIM 5 2 )"];
"143350909" -> "-632788017" [label="( CLAIM 5 5 )"];
"143350909" -> "-665111252" [label="( CLAIM 4 1 )"];
"143350909" -> "-663264210" [label="( CLAIM 4 3 )"];
"143350909" -> "-605082387" [label="( CLAIM 6 4 )"];
"143350909" -> "-662340689" [label="( CLAIM 4 4 )"];
"143350909" -> "-693740403" [label="( CLAIM 3 1 )"];
"143350909" -> "-634635059" [label="( CLAIM 5 3 )"];
"143350909" -> "-636482101" [label="( CLAIM 5 1 )"];
"143350909" -> "-607852950" [label="( CLAIM 6 1 )"];
"143350909" -> "-692816882" [label="( CLAIM 3 2 )"];
"-692816882" -> "-1686818445" [label="NOOP"];
"-607852950" -> "-1601854513" [label="NOOP"];
"-636482101" -> "-1630483664" [label="NOOP"];
"-634635059" -> "-1628636622" [label="NOOP"];
"-693740403" -> "-1687741966" [label="NOOP"];
"-662340689" -> "-1656342252" [label="NOOP"];
"-605082387" -> "-1599083950" [label="NOOP"];
"-663264210" -> "-1657265773" [label="NOOP"];
"-665111252" -> "-1659112815" [label="NOOP"];
"-632788017" -> "-1626789580" [label="NOOP"];
"-635558580" -> "-1629560143" [label="NOOP"];
"-664187731" -> "-1658189294" [label="NOOP"];
"-603235345" -> "-1597236908" [label="NOOP"];
"-721446033" -> "-1715447596" [label="NOOP"];
"-606005908" -> "-1600007471" [label="NOOP"];
"-604158866" -> "-1598160429" [label="NOOP"];
"-606929429" -> "-1600930992" [label="NOOP"];
"-722369554" -> "-1716371117" [label="NOOP"];
"-633711538" -> "-1627713101" [label="NOOP"];
"-750998705" -> "-1745000268" [label="NOOP"];
"-691893361" -> "-1685894924" [label="NOOP"];
"875423561" -> "143409530" [label="NOOP"];
"143409530" -> "1906282249" [label="( CLAIM 3 3 )"];
"143409530" -> "1847176905" [label="( CLAIM 1 1 )"];
"143409530" -> "1964464072" [label="( CLAIM 5 4 )"];
"143409530" -> "1875806056" [label="( CLAIM 2 1 )"];
"143409530" -> "1991246181" [label="( CLAIM 6 2 )"];
"143409530" -> "1994016744" [label="( CLAIM 6 5 )"];
"143409530" -> "1992169702" [label="( CLAIM 6 3 )"];
"143409530" -> "1876729577" [label="( CLAIM 2 2 )"];
"143409530" -> "1994940265" [label="( CLAIM 6 6 )"];
"143409530" -> "1933987879" [label="( CLAIM 4 2 )"];
"143409530" -> "1962617030" [label="( CLAIM 5 2 )"];
"143409530" -> "1965387593" [label="( CLAIM 5 5 )"];
"143409530" -> "1933064358" [label="( CLAIM 4 1 )"];
"143409530" -> "1934911400" [label="( CLAIM 4 3 )"];
"143409530" -> "1993093223" [label="( CLAIM 6 4 )"];
"143409530" -> "1935834921" [label="( CLAIM 4 4 )"];
"143409530" -> "1904435207" [label="( CLAIM 3 1 )"];
"143409530" -> "1963540551" [label="( CLAIM 5 3 )"];
"143409530" -> "1961693509" [label="( CLAIM 5 1 )"];
"143409530" -> "1990322660" [label="( CLAIM 6 1 )"];
"143409530" -> "1905358728" [label="( CLAIM 3 2 )"];
"1905358728" -> "913115795" [label="NOOP"];
"1990322660" -> "998079727" [label="NOOP"];
"1961693509" -> "969450576" [label="NOOP"];
"1963540551" -> "971297618" [label="NOOP"];
"1904435207" -> "912192274" [label="NOOP"];
"1935834921" -> "943591988" [label="NOOP"];
"1993093223" -> "1000850290" [label="NOOP"];
"1934911400" -> "942668467" [label="NOOP"];
"1933064358" -> "940821425" [label="NOOP"];
"1965387593" -> "973144660" [label="NOOP"];
"1962617030" -> "970374097" [label="NOOP"];
"1933987879" -> "941744946" [label="NOOP"];
"1994940265" -> "1002697332" [label="NOOP"];
"1876729577" -> "884486644" [label="NOOP"];
"1992169702" -> "999926769" [label="NOOP"];
"1994016744" -> "1001773811" [label="NOOP"];
"1991246181" -> "999003248" [label="NOOP"];
"1875806056" -> "883563123" [label="NOOP"];
"1964464072" -> "972221139" [label="NOOP"];
"1847176905" -> "854933972" [label="NOOP"];
"1906282249" -> "914039316" [label="NOOP"];
"875306319" -> "143292288" [label="NOOP"];
"143292288" -> "1004898325" [label="( CLAIM 3 3 )"];
"143292288" -> "945792981" [label="( CLAIM 1 1 )"];
"143292288" -> "1063080148" [label="( CLAIM 5 4 )"];
"143292288" -> "974422132" [label="( CLAIM 2 1 )"];
"143292288" -> "1089862257" [label="( CLAIM 6 2 )"];
"143292288" -> "1092632820" [label="( CLAIM 6 5 )"];
"143292288" -> "1090785778" [label="( CLAIM 6 3 )"];
"143292288" -> "975345653" [label="( CLAIM 2 2 )"];
"143292288" -> "1093556341" [label="( CLAIM 6 6 )"];
"143292288" -> "1032603955" [label="( CLAIM 4 2 )"];
"143292288" -> "1061233106" [label="( CLAIM 5 2 )"];
"143292288" -> "1064003669" [label="( CLAIM 5 5 )"];
"143292288" -> "1031680434" [label="( CLAIM 4 1 )"];
"143292288" -> "1033527476" [label="( CLAIM 4 3 )"];
"143292288" -> "1091709299" [label="( CLAIM 6 4 )"];
"143292288" -> "1034450997" [label="( CLAIM 4 4 )"];
"143292288" -> "1003051283" [label="( CLAIM 3 1 )"];
"143292288" -> "1062156627" [label="( CLAIM 5 3 )"];
"143292288" -> "1060309585" [label="( CLAIM 5 1 )"];
"143292288" -> "1088938736" [label="( CLAIM 6 1 )"];
"143292288" -> "1003974804" [label="( CLAIM 3 2 )"];
"1003974804" -> "8214611" [label="NOOP"];
"1088938736" -> "93178543" [label="NOOP"];
"1060309585" -> "64549392" [label="NOOP"];
"1062156627" -> "66396434" [label="NOOP"];
"1003051283" -> "7291090" [label="NOOP"];
"1034450997" -> "38690804" [label="NOOP"];
"1091709299" -> "95949106" [label="NOOP"];
"1033527476" -> "37767283" [label="NOOP"];
"1031680434" -> "35920241" [label="NOOP"];
"1064003669" -> "68243476" [label="NOOP"];
"1061233106" -> "65472913" [label="NOOP"];
"1032603955" -> "36843762" [label="NOOP"];
"1093556341" -> "97796148" [label="NOOP"];
"975345653" -> "-20414540" [label="NOOP"];
"1090785778" -> "95025585" [label="NOOP"];
"1092632820" -> "96872627" [label="NOOP"];
"1089862257" -> "94102064" [label="NOOP"];
"974422132" -> "-21338061" [label="NOOP"];
"1063080148" -> "67319955" [label="NOOP"];
"945792981" -> "-49967212" [label="NOOP"];
"1004898325" -> "9138132" [label="NOOP"];
"875277489" -> "143263458" [label="NOOP"];
"143263458" -> "149562841" [label="( CLAIM 3 3 )"];
"143263458" -> "90457497" [label="( CLAIM 1 1 )"];
"143263458" -> "207744664" [label="( CLAIM 5 4 )"];
"143263458" -> "119086648" [label="( CLAIM 2 1 )"];
"143263458" -> "234526773" [label="( CLAIM 6 2 )"];
"143263458" -> "237297336" [label="( CLAIM 6 5 )"];
"143263458" -> "235450294" [label="( CLAIM 6 3 )"];
"143263458" -> "120010169" [label="( CLAIM 2 2 )"];
"143263458" -> "238220857" [label="( CLAIM 6 6 )"];
"143263458" -> "177268471" [label="( CLAIM 4 2 )"];
"143263458" -> "205897622" [label="( CLAIM 5 2 )"];
"143263458" -> "208668185" [label="( CLAIM 5 5 )"];
"143263458" -> "176344950" [label="( CLAIM 4 1 )"];
"143263458" -> "178191992" [label="( CLAIM 4 3 )"];
"143263458" -> "236373815" [label="( CLAIM 6 4 )"];
"143263458" -> "179115513" [label="( CLAIM 4 4 )"];
"143263458" -> "147715799" [label="( CLAIM 3 1 )"];
"143263458" -> "206821143" [label="( CLAIM 5 3 )"];
"143263458" -> "204974101" [label="( CLAIM 5 1 )"];
"143263458" -> "233603252" [label="( CLAIM 6 1 )"];
"143263458" -> "148639320" [label="( CLAIM 3 2 )"];
"148639320" -> "-847985773" [label="NOOP"];
"233603252" -> "-763021841" [label="NOOP"];
"204974101" -> "-791650992" [label="NOOP"];
"206821143" -> "-789803950" [label="NOOP"];
"147715799" -> "-848909294" [label="NOOP"];
"179115513" -> "-817509580" [label="NOOP"];
"236373815" -> "-760251278" [label="NOOP"];
"178191992" -> "-818433101" [label="NOOP"];
"176344950" -> "-820280143" [label="NOOP"];
"208668185" -> "-787956908" [label="NOOP"];
"205897622" -> "-790727471" [label="NOOP"];
"177268471" -> "-819356622" [label="NOOP"];
"238220857" -> "-758404236" [label="NOOP"];
"120010169" -> "-876614924" [label="NOOP"];
"235450294" -> "-761174799" [label="NOOP"];
"237297336" -> "-759327757" [label="NOOP"];
"234526773" -> "-762098320" [label="NOOP"];
"119086648" -> "-877538445" [label="NOOP"];
"207744664" -> "-788880429" [label="NOOP"];
"90457497" -> "-906167596" [label="NOOP"];
"149562841" -> "-847062252" [label="NOOP"];
"-920132972" [label="0.02777777777777777"];
"1582399668" [label="0.02777777777777777"];
"694866196" [label="0.02777777777777777"];
"30066676" [label="0.02777777777777777"];
"1742467444" [label="0.02777777777777777"];
"-112633388" [label="0.02777777777777777"];
"1631100468" [label="0.02777777777777777"];
"-968833772" [label="0.02777777777777777"];
"-937500684" [label="0.02777777777777777"];
"806233172" [label="0.02777777777777777"];
"-161334188" [label="0.02777777777777777"];
"1613732756" [label="0.02777777777777777"];
"-1048867660" [label="0.02777777777777777"];
"-1856367244" [label="0.02777777777777777"];
"-1825034156" [label="0.02777777777777777"];
"774900084" [label="0.02777777777777777"];
"1693766644" [label="0.02777777777777777"];
"1662433556" [label="0.02777777777777777"];
"-857466796" [label="0.02777777777777777"];
"837566260" [label="0.02777777777777777"];
"-1713667180" [label="0.02777777777777777"];
"886267060" [label="0.02777777777777777"];
"1773800532" [label="0.02777777777777777"];
"-1266412" [label="0.02777777777777777"];
"-888799884" [label="0.02777777777777777"];
"-1664966380" [label="0.02777777777777777"];
"-32599500" [label="0.02777777777777777"];
"-777432908" [label="0.02777777777777777"];
"-81300300" [label="0.02777777777777777"];
"-1793701068" [label="0.02777777777777777"];
"-1776333356" [label="0.02777777777777777"];
"726199284" [label="0.02777777777777777"];
"-1745000268" [label="0.02777777777777777"];
"854933972" [label="0.02777777777777777"];
"-49967212" [label="0.02777777777777777"];
"-906167596" [label="0.02777777777777777"];
}
